<?xml version="1.0" standalone="no"?>
<!DOCTYPE svg PUBLIC "-//W3C//DTD SVG 1.1//EN" "http://www.w3.org/Graphics/SVG/1.1/DTD/svg11.dtd" >
<svg xmlns="http://www.w3.org/2000/svg">
<metadata></metadata>
<defs>
<font id="gotham_ot_mdmedium" horiz-adv-x="1024" >
<font-face units-per-em="2048" ascent="1638" descent="-410" />
<missing-glyph horiz-adv-x="614" />
<glyph horiz-adv-x="2048" />
<glyph horiz-adv-x="2048" />
<glyph unicode="&#xd;" horiz-adv-x="2048" />
<glyph unicode=" "  horiz-adv-x="614" />
<glyph unicode="&#x09;" horiz-adv-x="614" />
<glyph unicode="&#xa0;" horiz-adv-x="614" />
<glyph unicode="!" horiz-adv-x="618" d="M164 1362v72h291v-72l-76 -909h-137zM174 0v281h272v-281h-272z" />
<glyph unicode="&#x22;" horiz-adv-x="997" d="M123 821l47 613h281v-11l-199 -602h-129zM571 821l50 613h280v-11l-201 -602h-129z" />
<glyph unicode="#" horiz-adv-x="1433" d="M80 330v213h221l59 356h-204v213h241l56 322h219l-56 -322h336l54 322h219l-56 -322h183v-213h-219l-60 -356h205v-213h-242l-57 -330h-219l57 330h-336l-55 -330h-219l57 330h-184zM518 543h336l61 356h-335z" />
<glyph unicode="$" horiz-adv-x="1314" d="M100 207l131 186q186 -150 361 -176v401q-230 60 -334 156t-104 264v4q0 164 118 270.5t312 121.5v118h178v-122q209 -25 385 -156l-115 -193q-134 101 -278 131v-389q234 -59 339 -158.5t105 -263.5v-4q0 -165 -119.5 -271.5t-316.5 -123.5v-203h-178v205 q-267 30 -484 203zM395 1053q0 -67 42 -110t155 -77v361q-94 -7 -145.5 -53.5t-51.5 -116.5v-4zM754 209q96 7 149 53.5t53 120.5v4q0 71 -43.5 115t-158.5 78v-371z" />
<glyph unicode="%" horiz-adv-x="1738" d="M98 1079v4q0 153 95.5 260t244.5 107q148 0 242 -106t94 -257v-4q0 -153 -95.5 -259.5t-244.5 -106.5q-148 0 -242 105.5t-94 256.5zM244 0l1048 1434h203l-1049 -1434h-202zM281 1083q0 -89 44.5 -149t112.5 -60q70 0 112 59.5t42 145.5v4q0 87 -45 148t-113 61 q-70 0 -111.5 -59.5t-41.5 -145.5v-4zM965 346v4q0 153 95.5 260t244.5 107q147 0 241 -106t94 -257v-4q0 -153 -95.5 -259.5t-244.5 -106.5q-148 0 -241.5 105.5t-93.5 256.5zM1147 350q0 -89 45 -149t113 -60q70 0 111.5 59.5t41.5 145.5v4q0 87 -45 148t-113 61 q-70 0 -111.5 -59.5t-41.5 -145.5v-4z" />
<glyph unicode="&#x26;" horiz-adv-x="1425" d="M80 389v4q0 272 305 402q-119 151 -119 299v4q0 150 113 255t299 105q168 0 274.5 -99.5t106.5 -246.5v-4q0 -253 -316 -373l246 -250q80 119 154 277l190 -100q-99 -199 -194 -328l225 -230l-186 -133l-191 195q-199 -186 -440 -186q-203 0 -335 113t-132 296zM334 397 q0 -91 67.5 -150t171.5 -59q140 0 271 125l-320 326q-96 -41 -143 -103.5t-47 -134.5v-4zM502 1083q0 -54 23.5 -100t84.5 -113q113 41 169.5 95t56.5 129v4q0 72 -46 117t-118 45q-76 0 -123 -48.5t-47 -124.5v-4z" />
<glyph unicode="'" horiz-adv-x="550" d="M123 821l47 613h285v-11l-201 -602h-131z" />
<glyph unicode="(" horiz-adv-x="901" d="M129 588q0 287 142 504t425 372l109 -166q-221 -147 -324.5 -315.5t-103.5 -394.5t103.5 -395t324.5 -316l-109 -166q-567 312 -567 877z" />
<glyph unicode=")" horiz-adv-x="901" d="M98 -123q221 147 324.5 316t103.5 395t-103.5 394.5t-324.5 315.5l109 166q567 -313 567 -876q0 -564 -567 -877z" />
<glyph unicode="*" horiz-adv-x="880" d="M119 1008l233 102l-233 102l74 125l204 -149l-28 250h143l-29 -250l205 149l74 -125l-234 -102l234 -102l-74 -125l-205 149l29 -250h-143l28 250l-204 -149z" />
<glyph unicode="+" horiz-adv-x="1310" d="M145 608v226h394v391h233v-391h393v-226h-393v-391h-233v391h-394z" />
<glyph unicode="," horiz-adv-x="550" d="M70 -193q189 38 174 193h-105v281h273v-238q0 -166 -78.5 -247t-237.5 -93z" />
<glyph unicode="-" horiz-adv-x="835" d="M115 506v244h606v-244h-606z" />
<glyph unicode="." horiz-adv-x="550" d="M139 0v281h273v-281h-273z" />
<glyph unicode="/" horiz-adv-x="1067" d="M-51 -262l925 1896h216l-926 -1896h-215z" />
<glyph unicode="0" horiz-adv-x="1482" d="M117 713v4q0 205 77 373t221 268t328 100q183 0 326.5 -99t220 -266t76.5 -372v-4q0 -153 -45.5 -289t-126 -236t-199 -158.5t-256.5 -58.5q-184 0 -327 99t-219 266.5t-76 372.5zM377 717q0 -142 44.5 -258.5t128.5 -186t193 -69.5t192.5 68.5t127 184t43.5 257.5v4 q0 217 -102.5 365.5t-264.5 148.5q-108 0 -191 -68t-127 -183.5t-44 -258.5v-4z" />
<glyph unicode="1" horiz-adv-x="811" d="M53 1321l385 123h176v-1444h-249v1188l-259 -72z" />
<glyph unicode="2" horiz-adv-x="1255" d="M100 0v199l494 419q151 127 209.5 210t58.5 178q0 103 -65 163t-166 60q-94 0 -169 -51t-163 -164l-178 139q73 103 141.5 165.5t165 99t221.5 36.5q211 0 342 -118t131 -310v-4q0 -67 -15.5 -125t-41.5 -107t-75.5 -104t-102.5 -103t-137 -116l-295 -246h682v-221h-1037 z" />
<glyph unicode="3" horiz-adv-x="1265" d="M88 227l176 164q79 -94 170 -141t207 -47q107 0 177.5 60t70.5 157v4q0 105 -88.5 163t-241.5 58h-117l-41 158l387 411h-620v220h948v-189l-399 -409q86 -12 158 -39t133.5 -73.5t96 -121t34.5 -170.5v-4q0 -199 -140 -326t-362 -127q-342 0 -549 252z" />
<glyph unicode="4" horiz-adv-x="1394" d="M74 502l796 942h215v-916h205v-206h-205v-322h-241v322h-723zM373 528h471v568z" />
<glyph unicode="5" horiz-adv-x="1273" d="M96 195l156 182q187 -172 369 -172q129 0 206.5 67.5t77.5 180.5v4q0 108 -82.5 172.5t-214.5 64.5q-131 0 -264 -63l-151 100l40 703h857v-224h-639l-23 -336q112 41 227 41q106 0 195.5 -28t157.5 -82.5t106.5 -141.5t38.5 -198v-4q0 -219 -146 -352.5t-384 -133.5 q-300 0 -527 220z" />
<glyph unicode="6" horiz-adv-x="1343" d="M117 674v4q0 132 24.5 249t75 214.5t122.5 168t172.5 109.5t219.5 39q133 0 235.5 -40t202.5 -120l-135 -194q-82 64 -152.5 94.5t-158.5 30.5q-155 0 -245 -125.5t-99 -329.5q68 67 147.5 105.5t194.5 38.5q141 0 254 -52t180.5 -156t67.5 -243v-4q0 -140 -70 -252 t-192 -174t-271 -62q-246 0 -399 150q-87 89 -130.5 215.5t-43.5 333.5zM387 451q0 -111 82 -184.5t215 -73.5q131 0 209 73.5t78 186.5v4q0 109 -80.5 179.5t-212.5 70.5q-130 0 -210.5 -73t-80.5 -179v-4z" />
<glyph unicode="7" horiz-adv-x="1247" d="M139 1212v222h1008v-191l-647 -1243h-283l643 1212h-721z" />
<glyph unicode="8" horiz-adv-x="1290" d="M98 389v4q0 242 258 350q-209 109 -209 320v4q0 165 142 276t356 111q215 0 356.5 -110.5t141.5 -276.5v-4q0 -211 -209 -320q125 -58 191.5 -140.5t66.5 -203.5v-4q0 -125 -71.5 -220.5t-195 -145t-280.5 -49.5q-238 0 -392.5 113.5t-154.5 295.5zM344 406 q0 -91 82 -153.5t219 -62.5t219 62t82 154v4q0 97 -85.5 157t-215.5 60t-215.5 -60t-85.5 -157v-4zM389 1040q0 -93 72.5 -153t183.5 -60t183.5 59.5t72.5 151.5v4q0 85 -71.5 143t-184.5 58t-184.5 -57.5t-71.5 -141.5v-4z" />
<glyph unicode="9" horiz-adv-x="1343" d="M121 958v5q0 213 149.5 354t384.5 141q132 0 226.5 -37t171.5 -114q85 -85 129.5 -215t44.5 -332v-4q0 -230 -72.5 -406.5t-213 -275.5t-329.5 -99q-140 0 -249 44.5t-209 127.5l137 193q83 -70 159.5 -102.5t167.5 -32.5q156 0 248.5 124t98.5 326q-126 -151 -336 -151 q-229 0 -368.5 124t-139.5 330zM373 971q0 -113 80.5 -184.5t212.5 -71.5t211 75t79 183v4q0 114 -82.5 189t-216.5 75q-130 0 -207 -76t-77 -190v-4z" />
<glyph unicode=":" horiz-adv-x="571" d="M150 0v281h272v-281h-272zM150 801v280h272v-280h-272z" />
<glyph unicode=";" horiz-adv-x="571" d="M80 -193q189 38 174 193h-104v281h272v-238q0 -166 -78.5 -247t-237.5 -93zM150 801v280h272v-280h-272z" />
<glyph unicode="&#x3c;" horiz-adv-x="1310" d="M143 610v221l977 453v-235l-731 -326l731 -328v-237z" />
<glyph unicode="=" horiz-adv-x="1310" d="M176 350v230h959v-230h-959zM176 862v230h959v-230h-959z" />
<glyph unicode="&#x3e;" horiz-adv-x="1310" d="M190 158v235l732 326l-732 328v237l977 -453v-221z" />
<glyph unicode="?" horiz-adv-x="1107" d="M49 1225q200 227 494 227q217 0 348 -112.5t131 -303.5v-4q0 -94 -32 -167.5t-89.5 -122t-129.5 -79t-161 -45.5l-20 -165h-166l-41 331l10 11q379 15 379 229v4q0 88 -63 141.5t-172 53.5q-181 0 -334 -162zM365 0v281h274v-281h-274z" />
<glyph unicode="@" horiz-adv-x="2007" d="M109 561q0 181 70 346t189.5 286t286 193t351.5 72q184 0 350.5 -67.5t284.5 -179t187.5 -259.5t69.5 -305q0 -125 -32 -224t-87.5 -160.5t-126 -93.5t-151.5 -32q-112 0 -188 40.5t-115 103.5q-140 -144 -317 -144q-158 0 -264.5 107t-106.5 280q0 105 39.5 201 t103.5 163.5t149 107.5t173 40q191 0 289 -151l24 123l199 -31l-90 -516q-11 -68 -11 -88q0 -67 43 -106.5t117 -39.5q116 0 193.5 109.5t77.5 310.5q0 112 -39 220.5t-113 200.5t-172 162.5t-224.5 110t-262.5 39.5q-172 0 -324 -65t-259.5 -175t-170 -261t-62.5 -318 q0 -168 62 -318t170.5 -259.5t264.5 -173.5t335 -64q147 0 265.5 33.5t240.5 103.5l37 -61q-253 -154 -543 -154q-129 0 -249.5 32.5t-220.5 90.5t-183 140.5t-140 180.5t-88.5 213t-31.5 236zM719 537q0 -104 60 -163t157 -59q113 0 198 96t85 228q0 97 -61 159t-154 62 q-115 0 -200 -93.5t-85 -229.5z" />
<glyph unicode="A" horiz-adv-x="1617" d="M61 0l631 1444h234l630 -1444h-266l-145 346h-678l-148 -346h-258zM559 569h494l-248 574z" />
<glyph unicode="B" horiz-adv-x="1478" d="M184 0v1434h643q248 0 375 -127q96 -96 96 -238v-4q0 -214 -204 -320q137 -46 210.5 -128t73.5 -220v-4q0 -189 -143 -291t-387 -102h-664zM432 223h418q131 0 203.5 50.5t72.5 146.5v4q0 92 -74 142t-221 50h-399v-393zM432 829h344q125 0 198 49.5t73 145.5v4 q0 85 -66 133.5t-186 48.5h-363v-381z" />
<glyph unicode="C" horiz-adv-x="1511" d="M121 713v4q0 152 55 288t151 236t235 158.5t298 58.5q185 0 316.5 -57.5t244.5 -165.5l-161 -186q-94 86 -190 132t-212 46q-134 0 -243 -67.5t-169.5 -183.5t-60.5 -255v-4q0 -213 135 -361.5t338 -148.5q124 0 217.5 46t194.5 140l162 -164q-80 -83 -158.5 -136 t-186 -85.5t-237.5 -32.5q-154 0 -290 57.5t-232 156.5t-151.5 235.5t-55.5 288.5z" />
<glyph unicode="D" horiz-adv-x="1601" d="M184 0v1434h535q166 0 309 -55t242 -150t155 -226.5t56 -281.5v-4q0 -150 -56 -282t-155 -228t-242 -151.5t-309 -55.5h-535zM436 229h283q224 0 361 135.5t137 348.5v4q0 213 -137.5 350t-360.5 137h-283v-975z" />
<glyph unicode="E" horiz-adv-x="1372" d="M184 0v1434h1063v-226h-811v-372h719v-226h-719v-385h821v-225h-1073z" />
<glyph unicode="F" horiz-adv-x="1343" d="M184 0v1434h1067v-230h-815v-391h723v-229h-723v-584h-252z" />
<glyph unicode="G" horiz-adv-x="1605" d="M121 713v4q0 149 55.5 284.5t151.5 236.5t235 160.5t297 59.5q180 0 307.5 -47.5t243.5 -146.5l-160 -191q-92 78 -182.5 116t-218.5 38q-129 0 -236.5 -69t-168 -185t-60.5 -252v-4q0 -147 60 -263t171.5 -182.5t255.5 -66.5q203 0 347 108v269h-367v219h610v-602 q-261 -224 -598 -224q-220 0 -390.5 97.5t-261.5 265t-91 375.5z" />
<glyph unicode="H" horiz-adv-x="1556" d="M184 0v1434h252v-596h684v596h252v-1434h-252v604h-684v-604h-252z" />
<glyph unicode="I" horiz-adv-x="649" d="M199 0v1434h252v-1434h-252z" />
<glyph unicode="J" horiz-adv-x="1144" d="M43 211l166 170q67 -84 134.5 -126t154.5 -42q105 0 166 71.5t61 209.5v940h258v-947q0 -248 -133 -381q-126 -126 -348 -126q-291 0 -459 231z" />
<glyph unicode="K" horiz-adv-x="1484" d="M184 0v1434h252v-721l682 721h309l-596 -617l623 -817h-305l-490 645l-223 -229v-416h-252z" />
<glyph unicode="L" horiz-adv-x="1267" d="M184 0v1434h252v-1205h754v-229h-1006z" />
<glyph unicode="M" horiz-adv-x="1777" d="M184 0v1434h269l436 -678l436 678h268v-1434h-252v1028l-452 -676h-8l-449 672v-1024h-248z" />
<glyph unicode="N" horiz-adv-x="1617" d="M184 0v1434h234l768 -992v992h248v-1434h-211l-791 1020v-1020h-248z" />
<glyph unicode="O" horiz-adv-x="1740" d="M121 713v4q0 150 56 285.5t154 236t239 160t302 59.5t301.5 -58.5t238 -158.5t153 -235t55.5 -285v-4q0 -150 -56 -286t-154 -236.5t-239.5 -160t-302.5 -59.5q-215 0 -387 100.5t-266 268.5t-94 369zM385 717q0 -139 61.5 -255.5t174 -185.5t251.5 -69t250.5 68 t172.5 183.5t61 254.5v4q0 139 -62 255.5t-174.5 185.5t-251.5 69t-250.5 -68t-172 -183.5t-60.5 -254.5v-4z" />
<glyph unicode="P" horiz-adv-x="1368" d="M184 0v1434h566q249 0 396.5 -131t147.5 -349v-4q0 -156 -78.5 -268.5t-206 -166.5t-288.5 -54h-285v-461h-252zM436 688h293q141 0 225 71t84 185v4q0 124 -82.5 190t-226.5 66h-293v-516z" />
<glyph unicode="Q" horiz-adv-x="1740" d="M121 713v4q0 150 56 285.5t154 236t239 160t302 59.5t301.5 -58.5t238 -158.5t153 -235t55.5 -285v-4q0 -248 -145 -441l163 -139l-161 -180l-172 154q-191 -136 -437 -136q-215 0 -387 100.5t-266 268.5t-94 369zM385 717q0 -139 61.5 -255.5t174 -185.5t251.5 -69 q137 0 246 69l-246 209l162 185l248 -226q74 115 74 269v4q0 139 -62 255.5t-174.5 185.5t-251.5 69t-250.5 -68t-172 -183.5t-60.5 -254.5v-4z" />
<glyph unicode="R" horiz-adv-x="1480" d="M184 0v1434h639q267 0 414 -144q119 -122 119 -309v-4q0 -170 -92 -279.5t-250 -154.5l387 -543h-297l-352 500h-4h-312v-500h-252zM436 723h369q135 0 215 65.5t80 174.5v4q0 114 -78 175.5t-219 61.5h-367v-481z" />
<glyph unicode="S" horiz-adv-x="1310" d="M88 209l152 180q107 -93 215 -139.5t237 -46.5q117 0 185.5 49t68.5 131v4q0 54 -25 89.5t-95.5 67.5t-202.5 62q-98 24 -167.5 48t-131.5 58.5t-99.5 78t-58.5 104.5t-21 139v4q0 184 137.5 300t352.5 116q297 0 520 -180l-135 -191q-199 148 -389 148 q-107 0 -170.5 -48.5t-63.5 -121.5v-4q0 -57 28.5 -94t100.5 -68t211 -64q239 -58 350 -152.5t111 -266.5v-4q0 -198 -141.5 -313t-370.5 -115q-342 0 -598 229z" />
<glyph unicode="T" horiz-adv-x="1327" d="M82 1200v234h1163v-234h-454v-1200h-254v1200h-455z" />
<glyph unicode="U" horiz-adv-x="1550" d="M162 608v826h252v-816q0 -197 95.5 -303t266.5 -106q170 0 265.5 102t95.5 297v826h252v-813q0 -314 -164.5 -479t-452.5 -165q-285 0 -447.5 162t-162.5 469z" />
<glyph unicode="V" horiz-adv-x="1536" d="M61 1434h279l432 -1102l430 1102h273l-596 -1444h-222z" />
<glyph unicode="W" horiz-adv-x="2285" d="M74 1434h272l342 -1063l352 1067h213l353 -1067l342 1063h264l-500 -1444h-217l-352 1030l-352 -1030h-218z" />
<glyph unicode="X" horiz-adv-x="1492" d="M76 0l522 729l-502 705h297l357 -514l358 514h289l-500 -701l520 -733h-297l-377 543l-378 -543h-289z" />
<glyph unicode="Y" horiz-adv-x="1466" d="M37 1434h297l401 -635l406 635h289l-570 -863v-571h-254v565z" />
<glyph unicode="Z" horiz-adv-x="1437" d="M133 0v186l846 1024h-819v224h1147v-187l-846 -1024h846v-223h-1174z" />
<glyph unicode="[" horiz-adv-x="929" d="M180 -266v1700h629v-195h-393v-1311h393v-194h-629z" />
<glyph unicode="\" horiz-adv-x="1067" d="M-23 1634h216l925 -1896h-215z" />
<glyph unicode="]" horiz-adv-x="929" d="M121 -72h393v1311h-393v195h631v-1700h-631v194z" />
<glyph unicode="^" d="M115 1010l309 426h176l309 -426h-190l-209 270l-209 -270h-186z" />
<glyph unicode="_" horiz-adv-x="1228" d="M-4 -135h1237v-193h-1237v193z" />
<glyph unicode="`" d="M254 1454l225 100l217 -335h-192z" />
<glyph unicode="a" horiz-adv-x="1202" d="M82 311v4q0 174 120.5 264.5t317.5 90.5q159 0 299 -45v20q0 113 -68.5 172.5t-197.5 59.5q-146 0 -309 -68l-68 199q100 45 194.5 67.5t217.5 22.5q236 0 355.5 -118.5t119.5 -338.5v-641h-246v133q-131 -156 -350 -156q-162 0 -273.5 89t-111.5 245zM328 324 q0 -74 59 -117t150 -43q124 0 205 63.5t81 163.5v62q-108 43 -248 43q-116 0 -181.5 -45t-65.5 -123v-4z" />
<glyph unicode="b" horiz-adv-x="1372" d="M156 0v1495h247v-594q144 203 367 203q97 0 187 -38t161 -107.5t113.5 -177.5t42.5 -238v-4q0 -130 -42.5 -238t-113 -178t-160.5 -108t-188 -38q-222 0 -367 191v-168h-247zM397 539q0 -152 93 -249t223 -97q131 0 220 95t89 251v4q0 153 -90 249.5t-219 96.5 q-130 0 -223 -97.5t-93 -248.5v-4z" />
<glyph unicode="c" horiz-adv-x="1169" d="M96 535v4q0 152 72 281.5t201.5 206.5t287.5 77q145 0 248.5 -48t184.5 -138l-154 -166q-63 66 -128 100.5t-153 34.5q-133 0 -222 -100.5t-89 -243.5v-4q0 -147 91.5 -248t232.5 -101q82 0 149 35t131 101l150 -148q-88 -99 -191.5 -151t-251.5 -52q-158 0 -286.5 75.5 t-200.5 204t-72 280.5z" />
<glyph unicode="d" horiz-adv-x="1372" d="M100 539v4q0 130 42 238t112.5 177.5t160 107.5t187.5 38q220 0 369 -191v582h248v-1495h-248v180q-144 -203 -369 -203q-96 0 -185.5 38t-160.5 108t-113.5 178t-42.5 238zM350 539q0 -153 91 -249.5t221 -96.5q128 0 220.5 97.5t92.5 248.5v4q0 152 -92 249t-221 97 q-132 0 -222 -94.5t-90 -251.5v-4z" />
<glyph unicode="e" horiz-adv-x="1236" d="M96 537v4q0 154 67 282.5t189 204.5t273 76q101 0 186 -30.5t145.5 -84.5t103 -127.5t63 -159.5t20.5 -180q0 -19 -4 -69h-795q20 -130 104.5 -202.5t206.5 -72.5q88 0 157 31.5t136 97.5l146 -129q-168 -203 -443 -203q-156 0 -282 70t-199.5 199t-73.5 293zM342 616 h555q-13 126 -84.5 205.5t-189.5 79.5q-112 0 -187.5 -78.5t-93.5 -206.5z" />
<glyph unicode="f" horiz-adv-x="770" d="M74 868v207h137v78q0 180 88 268q86 86 244 86q104 0 200 -28v-209q-80 26 -145 26q-143 0 -143 -163v-60h286v-205h-282v-868h-248v868h-137z" />
<glyph unicode="g" horiz-adv-x="1372" d="M100 592v4q0 116 41.5 213.5t110.5 161t157 98.5t183 35q126 0 216.5 -49.5t162.5 -134.5v161h248v-860q0 -269 -138 -407q-146 -146 -444 -146q-270 0 -483 129l92 187q184 -115 385 -115q166 0 254 85t88 247v84q-74 -96 -164.5 -147.5t-216.5 -51.5q-96 0 -184 35 t-157 98.5t-110 160.5t-41 212zM350 594q0 -131 88.5 -215t218.5 -84q132 0 225 84.5t93 212.5v4q0 131 -93 215t-225 84q-131 0 -219 -83t-88 -214v-4z" />
<glyph unicode="h" horiz-adv-x="1269" d="M156 0v1495h247v-582q131 191 338 191q181 0 283 -112.5t102 -303.5v-688h-247v614q0 126 -61 195.5t-171 69.5q-109 0 -176.5 -72.5t-67.5 -196.5v-610h-247z" />
<glyph unicode="i" horiz-adv-x="585" d="M160 1247v236h266v-236h-266zM170 0v1081h248v-1081h-248z" />
<glyph unicode="j" horiz-adv-x="585" d="M-16 -125q37 -6 69 -6q117 0 117 131v1081h248v-1095q0 -320 -316 -320q-53 0 -118 10v199zM160 1247v236h266v-236h-266z" />
<glyph unicode="k" horiz-adv-x="1191" d="M156 0v1495h247v-893l449 479h301l-430 -440l444 -641h-286l-326 467l-152 -158v-309h-247z" />
<glyph unicode="l" horiz-adv-x="585" d="M170 0v1495h248v-1495h-248z" />
<glyph unicode="m" horiz-adv-x="1945" d="M156 0v1081h247v-163q62 86 139.5 136t190.5 50q114 0 196 -51t126 -140q146 191 366 191q178 0 278.5 -108.5t100.5 -305.5v-690h-248v614q0 128 -57 196.5t-162 68.5q-104 0 -167.5 -70.5t-63.5 -198.5v-610h-248v616q0 125 -58 194t-161 69q-104 0 -168 -73t-64 -198 v-608h-247z" />
<glyph unicode="n" horiz-adv-x="1269" d="M156 0v1081h247v-168q131 191 338 191q181 0 283 -112.5t102 -303.5v-688h-247v614q0 126 -61 195.5t-171 69.5q-109 0 -176.5 -72.5t-67.5 -196.5v-610h-247z" />
<glyph unicode="o" horiz-adv-x="1345" d="M96 535v4q0 153 74.5 282.5t208 206t295.5 76.5q122 0 229.5 -44.5t183 -120t119 -178.5t43.5 -218v-4q0 -114 -44 -217.5t-120 -180t-184 -121.5t-231 -45q-121 0 -228.5 44.5t-183 120t-119 178.5t-43.5 217zM344 539q0 -144 94 -246.5t236 -102.5q147 0 237 100.5 t90 244.5v4q0 145 -93.5 246.5t-237.5 101.5q-146 0 -236 -99.5t-90 -244.5v-4z" />
<glyph unicode="p" horiz-adv-x="1372" d="M156 -328v1409h247v-180q144 203 367 203q97 0 187 -38t161 -107.5t113.5 -177.5t42.5 -238v-4q0 -130 -42.5 -238t-113 -178t-160.5 -108t-188 -38q-222 0 -367 191v-496h-247zM397 539q0 -152 93 -249t223 -97q131 0 220 95t89 251v4q0 153 -90 249.5t-219 96.5 q-130 0 -223 -97.5t-93 -248.5v-4z" />
<glyph unicode="q" horiz-adv-x="1372" d="M100 539v4q0 130 42 238t112.5 177.5t160 107.5t187.5 38q220 0 369 -191v168h248v-1409h-248v508q-144 -203 -369 -203q-96 0 -185.5 38t-160.5 108t-113.5 178t-42.5 238zM350 539q0 -153 91 -249.5t221 -96.5q128 0 220.5 97.5t92.5 248.5v4q0 152 -92 249t-221 97 q-132 0 -222 -94.5t-90 -251.5v-4z" />
<glyph unicode="r" horiz-adv-x="845" d="M156 0v1081h247v-243q54 128 150 199q89 65 212 65h21v-262h-14q-168 0 -268.5 -109.5t-100.5 -318.5v-412h-247z" />
<glyph unicode="s" d="M68 141l110 168q177 -133 354 -133q79 0 123.5 31.5t44.5 85.5v4q0 28 -16.5 50t-49.5 39t-66.5 29t-84.5 27q-16 5 -24 7q-57 16 -97.5 30.5t-89.5 41t-79 57.5t-51 79.5t-21 108.5v4q0 150 109.5 240t275.5 90q100 0 205 -32.5t192 -90.5l-98 -176q-168 102 -305 102 q-71 0 -111.5 -30t-40.5 -78v-4q0 -26 15 -47t55.5 -40.5t64.5 -28t88 -29.5q14 -5 21 -7q56 -17 96.5 -32.5t89 -43t78.5 -58.5t51 -78t21 -103v-5q0 -164 -112.5 -251.5t-289.5 -87.5q-118 0 -238.5 41.5t-219.5 119.5z" />
<glyph unicode="t" horiz-adv-x="839" d="M70 868v213h137v297h248v-297h290v-213h-290v-530q0 -135 133 -135q80 0 153 37v-203q-96 -55 -223 -55q-311 0 -311 317v569h-137z" />
<glyph unicode="u" horiz-adv-x="1269" d="M143 393v688h248v-614q0 -126 61 -195t171 -69q109 0 176 72t67 196v610h248v-1081h-248v168q-131 -191 -338 -191q-181 0 -283 112.5t-102 303.5z" />
<glyph unicode="v" horiz-adv-x="1218" d="M53 1081h266l291 -794l293 794h260l-442 -1089h-223z" />
<glyph unicode="w" horiz-adv-x="1763" d="M66 1081h253l218 -741l239 745h211l242 -745l221 741h248l-355 -1089h-221l-241 739l-244 -739h-221z" />
<glyph unicode="x" horiz-adv-x="1187" d="M61 0l398 549l-383 532h270l250 -356l250 356h264l-383 -526l399 -555h-270l-266 379l-264 -379h-265z" />
<glyph unicode="y" horiz-adv-x="1220" d="M53 1081h264l308 -802l280 802h258l-430 -1112q-65 -166 -145.5 -234.5t-210.5 -68.5q-134 0 -256 66l84 184q74 -41 145 -41q53 0 88.5 28t65.5 97z" />
<glyph unicode="z" horiz-adv-x="1146" d="M106 0v170l625 709h-602v202h918v-170l-625 -708h625v-203h-941z" />
<glyph unicode="{" horiz-adv-x="997" d="M106 494v188h54q126 0 178.5 52t52.5 173q0 18 -2 75.5t-2 72.5q0 83 20.5 144t72 113.5t143 89.5t229.5 62l43 -164q-93 -26 -147.5 -50.5t-84 -59.5t-38.5 -72t-9 -98q0 -20 2.5 -75t2.5 -77q0 -115 -53.5 -180.5t-159.5 -99.5q108 -35 160.5 -100t52.5 -181 q0 -22 -2.5 -76.5t-2.5 -74.5q0 -61 9 -98.5t38.5 -72t84 -59.5t147.5 -51l-43 -164q-138 25 -230 62t-143 90t-71.5 114t-20.5 144q0 15 2 72t2 75q0 121 -52.5 173.5t-178.5 52.5h-54z" />
<glyph unicode="|" horiz-adv-x="677" d="M240 -262v1896h198v-1896h-198z" />
<glyph unicode="}" horiz-adv-x="997" d="M102 -125q93 26 147.5 51t84 59.5t38.5 72t9 98.5q0 20 -2 74.5t-2 76.5q0 115 53.5 181t159.5 100q-108 35 -160.5 100t-52.5 180q0 22 2 77t2 75q0 61 -9 98t-38.5 72t-84 59.5t-147.5 50.5l43 164q138 -25 229.5 -62t143 -89.5t72 -113.5t20.5 -144q0 -15 -2 -72.5 t-2 -75.5q0 -121 52.5 -173t179.5 -52h53v-188h-53q-126 0 -179 -52.5t-53 -173.5q0 -18 2 -75t2 -72q0 -83 -20.5 -144t-71.5 -114t-143 -90t-230 -62z" />
<glyph unicode="~" horiz-adv-x="1013" d="M121 512q36 130 87.5 192t141.5 62q62 0 162 -41t131 -41q42 0 66 23t47 79l137 -41q-36 -132 -87.5 -194t-141.5 -62q-62 0 -162 41t-131 41q-42 0 -66 -23t-47 -79z" />
<glyph unicode="&#xa2;" horiz-adv-x="1189" d="M106 723v4q0 153 72 282t201 205t287 76h18l31 156h180l-37 -182q133 -41 242 -160l-150 -160q-72 72 -141 103l-133 -668q148 3 282 133l144 -141q-181 -207 -445 -207h-12l-35 -176h-180l41 209q-163 57 -264 201.5t-101 324.5zM348 727q0 -103 46.5 -186.5 t127.5 -126.5l129 661q-130 -3 -216.5 -102.5t-86.5 -241.5v-4z" />
<glyph unicode="&#xa3;" horiz-adv-x="1318" d="M129 0v160l162 49v360h-162v213h162v189q0 229 127 356q124 127 344 127q158 0 263.5 -60t188.5 -169l-192 -154q-60 77 -118.5 113.5t-139.5 36.5q-89 0 -150 -58q-69 -72 -69 -198v-183h510v-213h-510v-350h665v-219h-1081z" />
<glyph unicode="&#xa5;" horiz-adv-x="1404" d="M39 1434h293l375 -600l374 600h285l-475 -711h328v-182h-396v-150h396v-182h-396v-209h-241v209h-396v182h396v150h-396v182h326z" />
<glyph unicode="&#xa8;" d="M182 1219v241h252v-241h-252zM590 1219v241h252v-241h-252z" />
<glyph unicode="&#xa9;" horiz-adv-x="1699" d="M109 713v4q0 149 58 285.5t157 236.5t237 159.5t291 59.5t290.5 -59t235.5 -158t155.5 -235t57.5 -285v-4q0 -149 -58 -285.5t-157 -237t-237 -160t-291 -59.5t-290.5 59t-235.5 158.5t-155.5 235.5t-57.5 285zM186 713q0 -181 86 -333.5t238.5 -241.5t337.5 -89 q186 0 339 90t239.5 243t86.5 335v4q0 181 -86 333t-238 241t-337 89q-186 0 -339.5 -90t-240 -242.5t-86.5 -334.5v-4zM465 723v4q0 167 113 284t284 117q102 0 173 -30.5t132 -89.5l-96 -111q-102 92 -209 92q-103 0 -172 -76t-69 -184v-4q0 -107 69 -183.5t172 -76.5 q65 0 113 23.5t100 72.5l99 -96q-66 -69 -139.5 -104t-176.5 -35q-168 0 -280.5 115t-112.5 282z" />
<glyph unicode="&#xab;" horiz-adv-x="1241" d="M90 532v17l340 450l188 -96l-270 -360l270 -363l-188 -96zM606 532v17l338 450l189 -96l-271 -360l271 -363l-189 -96z" />
<glyph unicode="&#xad;" horiz-adv-x="835" d="M115 506v244h606v-244h-606z" />
<glyph unicode="&#xae;" horiz-adv-x="1699" d="M109 713v4q0 149 58 285.5t157 236.5t237 159.5t291 59.5t290.5 -59t235.5 -158t155.5 -235t57.5 -285v-4q0 -149 -58 -285.5t-157 -237t-237 -160t-291 -59.5t-290.5 59t-235.5 158.5t-155.5 235.5t-57.5 285zM186 713q0 -181 86 -333.5t238.5 -241.5t337.5 -89 q186 0 339 90t239.5 243t86.5 335v4q0 181 -86 333t-238 241t-337 89q-186 0 -339.5 -90t-240 -242.5t-86.5 -334.5v-4zM551 350v776h346q152 0 236 -84q63 -60 63 -161v-4q0 -91 -48.5 -150.5t-131.5 -83.5l209 -293h-176l-189 268h-4h-158v-268h-147zM698 748h193 q72 0 112.5 32t40.5 88v4q0 58 -40.5 89.5t-112.5 31.5h-193v-245z" />
<glyph unicode="&#xb4;" d="M328 1219l217 335l225 -100l-250 -235h-192z" />
<glyph unicode="&#xb8;" d="M268 -248l185 268h186l-154 -358z" />
<glyph unicode="&#xbb;" horiz-adv-x="1241" d="M109 178l270 361l-270 362l188 98l338 -450v-17l-338 -448zM623 178l270 361l-270 362l188 98l340 -450v-17l-340 -448z" />
<glyph unicode="&#x106;" horiz-adv-x="1511" d="M121 713v4q0 152 55 288t151 236t235 158.5t298 58.5q185 0 316.5 -57.5t244.5 -165.5l-161 -186q-94 86 -190 132t-212 46q-134 0 -243 -67.5t-169.5 -183.5t-60.5 -255v-4q0 -213 135 -361.5t338 -148.5q124 0 217.5 46t194.5 140l162 -164q-80 -83 -158.5 -136 t-186 -85.5t-237.5 -32.5q-154 0 -290 57.5t-232 156.5t-151.5 235.5t-55.5 288.5zM748 1552l217 336l225 -100l-250 -236h-192z" />
<glyph unicode="&#x107;" horiz-adv-x="1169" d="M96 535v4q0 152 72 281.5t201.5 206.5t287.5 77q145 0 248.5 -48t184.5 -138l-154 -166q-63 66 -128 100.5t-153 34.5q-133 0 -222 -100.5t-89 -243.5v-4q0 -147 91.5 -248t232.5 -101q82 0 149 35t131 101l150 -148q-88 -99 -191.5 -151t-251.5 -52q-158 0 -286.5 75.5 t-200.5 204t-72 280.5zM588 1219l217 335l225 -100l-250 -235h-192z" />
<glyph unicode="&#x10c;" horiz-adv-x="1511" d="M121 713v4q0 152 55 288t151 236t235 158.5t298 58.5q185 0 316.5 -57.5t244.5 -165.5l-161 -186q-94 86 -190 132t-212 46q-134 0 -243 -67.5t-169.5 -183.5t-60.5 -255v-4q0 -213 135 -361.5t338 -148.5q124 0 217.5 46t194.5 140l162 -164q-80 -83 -158.5 -136 t-186 -85.5t-237.5 -32.5q-154 0 -290 57.5t-232 156.5t-151.5 235.5t-55.5 288.5zM508 1851h197l157 -135l158 135h192l-237 -299h-230z" />
<glyph unicode="&#x10d;" horiz-adv-x="1169" d="M96 535v4q0 152 72 281.5t201.5 206.5t287.5 77q145 0 248.5 -48t184.5 -138l-154 -166q-63 66 -128 100.5t-153 34.5q-133 0 -222 -100.5t-89 -243.5v-4q0 -147 91.5 -248t232.5 -101q82 0 149 35t131 101l150 -148q-88 -99 -191.5 -151t-251.5 -52q-158 0 -286.5 75.5 t-200.5 204t-72 280.5zM311 1518h197l158 -136l157 136h193l-238 -299h-229z" />
<glyph unicode="&#x110;" horiz-adv-x="1601" d="M92 608v226h154v600h534q166 0 309 -55t242 -150t155 -226.5t56 -281.5v-4q0 -150 -56 -282t-155 -228t-242 -151.5t-309 -55.5h-534v608h-154zM496 229h284q224 0 361 135.5t137 348.5v4q0 213 -137.5 350t-360.5 137h-284v-370h360v-226h-360v-379z" />
<glyph unicode="&#x111;" horiz-adv-x="1372" d="M100 539v4q0 130 42 238t112.5 177.5t160 107.5t187.5 38q220 0 369 -191v240h-246v225h246v117h248v-117h155v-225h-155v-1153h-248v180q-144 -203 -369 -203q-96 0 -185.5 38t-160.5 108t-113.5 178t-42.5 238zM350 539q0 -153 91 -249.5t221 -96.5q128 0 220.5 97.5 t92.5 248.5v4q0 152 -92 249t-221 97q-132 0 -222 -94.5t-90 -251.5v-4z" />
<glyph unicode="&#x160;" horiz-adv-x="1310" d="M88 209l152 180q107 -93 215 -139.5t237 -46.5q117 0 185.5 49t68.5 131v4q0 54 -25 89.5t-95.5 67.5t-202.5 62q-98 24 -167.5 48t-131.5 58.5t-99.5 78t-58.5 104.5t-21 139v4q0 184 137.5 300t352.5 116q297 0 520 -180l-135 -191q-199 148 -389 148 q-107 0 -170.5 -48.5t-63.5 -121.5v-4q0 -57 28.5 -94t100.5 -68t211 -64q239 -58 350 -152.5t111 -266.5v-4q0 -198 -141.5 -313t-370.5 -115q-342 0 -598 229zM303 1851h197l157 -135l158 135h193l-238 -299h-229z" />
<glyph unicode="&#x161;" d="M68 141l110 168q177 -133 354 -133q79 0 123.5 31.5t44.5 85.5v4q0 28 -16.5 50t-49.5 39t-66.5 29t-84.5 27q-16 5 -24 7q-57 16 -97.5 30.5t-89.5 41t-79 57.5t-51 79.5t-21 108.5v4q0 150 109.5 240t275.5 90q100 0 205 -32.5t192 -90.5l-98 -176q-168 102 -305 102 q-71 0 -111.5 -30t-40.5 -78v-4q0 -26 15 -47t55.5 -40.5t64.5 -28t88 -29.5q14 -5 21 -7q56 -17 96.5 -32.5t89 -43t78.5 -58.5t51 -78t21 -103v-5q0 -164 -112.5 -251.5t-289.5 -87.5q-118 0 -238.5 41.5t-219.5 119.5zM168 1518h197l157 -136l158 136h192l-237 -299h-229 z" />
<glyph unicode="&#x17d;" horiz-adv-x="1437" d="M133 0v186l846 1024h-819v224h1147v-187l-846 -1024h846v-223h-1174zM375 1851h196l158 -135l158 135h192l-237 -299h-230z" />
<glyph unicode="&#x17e;" horiz-adv-x="1146" d="M106 0v170l625 709h-602v202h918v-170l-625 -708h625v-203h-941zM238 1518h196l158 -136l158 136h192l-237 -299h-230z" />
<glyph unicode="&#x2c6;" d="M160 1219l237 299h230l237 -299h-196l-158 137l-158 -137h-192z" />
<glyph unicode="&#x2da;" d="M279 1438v4q0 90 70 156.5t163 66.5t163 -66.5t70 -156.5v-4q0 -90 -70 -157t-163 -67t-163 67t-70 157zM385 1438q0 -51 37.5 -88t89.5 -37t89.5 37t37.5 88v4q0 51 -37.5 88t-89.5 37t-89.5 -37t-37.5 -88v-4z" />
<glyph unicode="&#x2dc;" d="M125 1239q36 132 87.5 194t141.5 62q61 0 162 -41t133 -41q42 0 65 23t48 80l137 -43q-36 -130 -87.5 -192t-141.5 -62q-61 0 -162 40.5t-133 40.5q-42 0 -65 -22.5t-48 -79.5z" />
<glyph unicode="&#x2000;" horiz-adv-x="944" />
<glyph unicode="&#x2001;" horiz-adv-x="1888" />
<glyph unicode="&#x2002;" horiz-adv-x="944" />
<glyph unicode="&#x2003;" horiz-adv-x="1888" />
<glyph unicode="&#x2004;" horiz-adv-x="629" />
<glyph unicode="&#x2005;" horiz-adv-x="472" />
<glyph unicode="&#x2006;" horiz-adv-x="314" />
<glyph unicode="&#x2007;" horiz-adv-x="314" />
<glyph unicode="&#x2008;" horiz-adv-x="236" />
<glyph unicode="&#x2009;" horiz-adv-x="377" />
<glyph unicode="&#x200a;" horiz-adv-x="104" />
<glyph unicode="&#x2010;" horiz-adv-x="835" d="M115 506v244h606v-244h-606z" />
<glyph unicode="&#x2011;" horiz-adv-x="835" d="M115 506v244h606v-244h-606z" />
<glyph unicode="&#x2012;" horiz-adv-x="835" d="M115 506v244h606v-244h-606z" />
<glyph unicode="&#x2013;" horiz-adv-x="1081" d="M115 510v235h852v-235h-852z" />
<glyph unicode="&#x2014;" horiz-adv-x="1839" d="M115 510v235h1609v-235h-1609z" />
<glyph unicode="&#x2018;" horiz-adv-x="550" d="M129 864v240q0 167 78 247.5t237 92.5l27 -107q-189 -35 -174 -190h104v-283h-272z" />
<glyph unicode="&#x2019;" horiz-adv-x="550" d="M80 961q189 35 174 192h-104v281h272v-240q0 -166 -78.5 -247t-237.5 -93z" />
<glyph unicode="&#x201a;" horiz-adv-x="550" d="M70 -193q189 38 174 193h-105v281h273v-238q0 -166 -78.5 -247t-237.5 -93z" />
<glyph unicode="&#x201c;" horiz-adv-x="1026" d="M129 864v240q0 167 78 247.5t237 92.5l27 -107q-189 -35 -174 -190h104v-283h-272zM604 864v240q0 166 78.5 247t237.5 93l26 -107q-188 -35 -176 -190h107v-283h-273z" />
<glyph unicode="&#x201d;" horiz-adv-x="1026" d="M80 961q189 35 174 192h-104v281h272v-240q0 -166 -78.5 -247t-237.5 -93zM555 961q189 35 174 192h-104v281h272v-240q0 -167 -78 -247.5t-237 -92.5z" />
<glyph unicode="&#x201e;" horiz-adv-x="1026" d="M70 -193q189 38 174 193h-105v281h273v-238q0 -166 -78.5 -247t-237.5 -93zM545 -193q189 38 174 193h-105v281h273v-238q0 -166 -78.5 -247t-237.5 -93z" />
<glyph unicode="&#x2026;" horiz-adv-x="1622" d="M139 0v274h267v-274h-267zM678 0v274h266v-274h-266zM1217 0v274h266v-274h-266z" />
<glyph unicode="&#x202f;" horiz-adv-x="377" />
<glyph unicode="&#x2039;" horiz-adv-x="724" d="M90 532v17l340 450l188 -96l-270 -360l270 -363l-188 -96z" />
<glyph unicode="&#x203a;" horiz-adv-x="724" d="M109 178l270 361l-270 362l188 98l338 -450v-17l-338 -448z" />
<glyph unicode="&#x205f;" horiz-adv-x="472" />
<glyph unicode="&#x20ac;" horiz-adv-x="1474" d="M106 461v174h158q-2 27 -2 78v4q0 63 4 92h-160v174h193q63 214 217 344.5t365 130.5q91 0 167 -19.5t136 -57.5t106 -84t90 -109l-190 -141q-70 96 -141.5 141t-174.5 45q-107 0 -189.5 -66.5t-125.5 -183.5h440v-174h-479q-4 -54 -4 -88v-4q0 -28 4 -82h479v-174h-442 q42 -122 129 -191t205 -69q66 0 121.5 24t98 63.5t93.5 106.5l180 -131q-63 -91 -129 -151.5t-160 -99t-206 -38.5q-223 0 -379.5 132t-216.5 354h-187z" />
<glyph unicode="&#x2122;" horiz-adv-x="1413" d="M53 1323v111h510v-111h-194v-520h-121v520h-195zM698 803v631h129l191 -299l190 299h125v-631h-116v448l-195 -303h-12l-195 303v-448h-117z" />
<glyph unicode="&#x25fc;" horiz-adv-x="1085" d="M0 0v1085h1085v-1085h-1085z" />
<hkern u1="&#x24;" u2="&#x37;" k="20" />
<hkern u1="&#x26;" u2="Y" k="129" />
<hkern u1="&#x26;" u2="W" k="96" />
<hkern u1="&#x26;" u2="V" k="117" />
<hkern u1="&#x26;" u2="T" k="127" />
<hkern u1="&#x26;" u2="S" k="6" />
<hkern u1="&#x28;" u2="s" k="31" />
<hkern u1="&#x28;" u2="q" k="61" />
<hkern u1="&#x28;" u2="o" k="61" />
<hkern u1="&#x28;" u2="j" k="-61" />
<hkern u1="&#x28;" u2="g" k="41" />
<hkern u1="&#x28;" u2="e" k="61" />
<hkern u1="&#x28;" u2="d" k="61" />
<hkern u1="&#x28;" u2="c" k="61" />
<hkern u1="&#x28;" u2="Q" k="61" />
<hkern u1="&#x28;" u2="O" k="61" />
<hkern u1="&#x28;" u2="J" k="31" />
<hkern u1="&#x28;" u2="G" k="61" />
<hkern u1="&#x28;" u2="C" k="61" />
<hkern u1="&#x2a;" u2="t" k="-20" />
<hkern u1="&#x2a;" u2="s" k="20" />
<hkern u1="&#x2a;" u2="q" k="31" />
<hkern u1="&#x2a;" u2="o" k="41" />
<hkern u1="&#x2a;" u2="g" k="31" />
<hkern u1="&#x2a;" u2="e" k="41" />
<hkern u1="&#x2a;" u2="d" k="31" />
<hkern u1="&#x2a;" u2="c" k="41" />
<hkern u1="&#x2a;" u2="a" k="20" />
<hkern u1="&#x2a;" u2="J" k="164" />
<hkern u1="&#x2a;" u2="A" k="205" />
<hkern u1="&#x2c;" u2="&#x201d;" k="82" />
<hkern u1="&#x2c;" u2="&#x2019;" k="82" />
<hkern u1="&#x2c;" u2="y" k="92" />
<hkern u1="&#x2c;" u2="w" k="143" />
<hkern u1="&#x2c;" u2="v" k="174" />
<hkern u1="&#x2c;" u2="t" k="51" />
<hkern u1="&#x2c;" u2="q" k="20" />
<hkern u1="&#x2c;" u2="o" k="41" />
<hkern u1="&#x2c;" u2="j" k="-31" />
<hkern u1="&#x2c;" u2="g" k="20" />
<hkern u1="&#x2c;" u2="f" k="31" />
<hkern u1="&#x2c;" u2="e" k="41" />
<hkern u1="&#x2c;" u2="d" k="20" />
<hkern u1="&#x2c;" u2="c" k="41" />
<hkern u1="&#x2c;" u2="Y" k="266" />
<hkern u1="&#x2c;" u2="W" k="205" />
<hkern u1="&#x2c;" u2="V" k="246" />
<hkern u1="&#x2c;" u2="U" k="31" />
<hkern u1="&#x2c;" u2="T" k="205" />
<hkern u1="&#x2c;" u2="Q" k="82" />
<hkern u1="&#x2c;" u2="O" k="82" />
<hkern u1="&#x2c;" u2="G" k="82" />
<hkern u1="&#x2c;" u2="C" k="82" />
<hkern u1="&#x2c;" u2="&#x37;" k="41" />
<hkern u1="&#x2c;" u2="&#x31;" k="102" />
<hkern u1="&#x2c;" u2="&#x30;" k="41" />
<hkern u1="&#x2d;" u2="z" k="20" />
<hkern u1="&#x2d;" u2="y" k="31" />
<hkern u1="&#x2d;" u2="x" k="61" />
<hkern u1="&#x2d;" u2="w" k="20" />
<hkern u1="&#x2d;" u2="v" k="31" />
<hkern u1="&#x2d;" u2="Z" k="61" />
<hkern u1="&#x2d;" u2="Y" k="164" />
<hkern u1="&#x2d;" u2="X" k="102" />
<hkern u1="&#x2d;" u2="W" k="72" />
<hkern u1="&#x2d;" u2="V" k="82" />
<hkern u1="&#x2d;" u2="T" k="184" />
<hkern u1="&#x2d;" u2="A" k="82" />
<hkern u1="&#x2d;" u2="&#x37;" k="82" />
<hkern u1="&#x2d;" u2="&#x33;" k="20" />
<hkern u1="&#x2d;" u2="&#x31;" k="61" />
<hkern u1="&#x2e;" u2="&#x201d;" k="82" />
<hkern u1="&#x2e;" u2="&#x2019;" k="82" />
<hkern u1="&#x2e;" u2="y" k="123" />
<hkern u1="&#x2e;" u2="w" k="143" />
<hkern u1="&#x2e;" u2="v" k="174" />
<hkern u1="&#x2e;" u2="t" k="51" />
<hkern u1="&#x2e;" u2="q" k="20" />
<hkern u1="&#x2e;" u2="o" k="41" />
<hkern u1="&#x2e;" u2="g" k="20" />
<hkern u1="&#x2e;" u2="f" k="31" />
<hkern u1="&#x2e;" u2="e" k="41" />
<hkern u1="&#x2e;" u2="d" k="20" />
<hkern u1="&#x2e;" u2="c" k="41" />
<hkern u1="&#x2e;" u2="Y" k="266" />
<hkern u1="&#x2e;" u2="W" k="205" />
<hkern u1="&#x2e;" u2="V" k="246" />
<hkern u1="&#x2e;" u2="U" k="31" />
<hkern u1="&#x2e;" u2="T" k="205" />
<hkern u1="&#x2e;" u2="Q" k="82" />
<hkern u1="&#x2e;" u2="O" k="82" />
<hkern u1="&#x2e;" u2="G" k="82" />
<hkern u1="&#x2e;" u2="C" k="82" />
<hkern u1="&#x2e;" u2="&#x37;" k="41" />
<hkern u1="&#x2e;" u2="&#x31;" k="102" />
<hkern u1="&#x2e;" u2="&#x30;" k="41" />
<hkern u1="&#x2f;" u2="z" k="123" />
<hkern u1="&#x2f;" u2="y" k="102" />
<hkern u1="&#x2f;" u2="x" k="102" />
<hkern u1="&#x2f;" u2="w" k="102" />
<hkern u1="&#x2f;" u2="v" k="102" />
<hkern u1="&#x2f;" u2="u" k="102" />
<hkern u1="&#x2f;" u2="t" k="41" />
<hkern u1="&#x2f;" u2="s" k="174" />
<hkern u1="&#x2f;" u2="r" k="102" />
<hkern u1="&#x2f;" u2="q" k="143" />
<hkern u1="&#x2f;" u2="p" k="102" />
<hkern u1="&#x2f;" u2="o" k="164" />
<hkern u1="&#x2f;" u2="n" k="102" />
<hkern u1="&#x2f;" u2="m" k="102" />
<hkern u1="&#x2f;" u2="g" k="143" />
<hkern u1="&#x2f;" u2="f" k="51" />
<hkern u1="&#x2f;" u2="e" k="164" />
<hkern u1="&#x2f;" u2="d" k="143" />
<hkern u1="&#x2f;" u2="c" k="164" />
<hkern u1="&#x2f;" u2="a" k="133" />
<hkern u1="&#x2f;" u2="Z" k="41" />
<hkern u1="&#x2f;" u2="S" k="61" />
<hkern u1="&#x2f;" u2="Q" k="82" />
<hkern u1="&#x2f;" u2="O" k="82" />
<hkern u1="&#x2f;" u2="J" k="266" />
<hkern u1="&#x2f;" u2="G" k="82" />
<hkern u1="&#x2f;" u2="C" k="82" />
<hkern u1="&#x2f;" u2="A" k="246" />
<hkern u1="&#x2f;" u2="&#x39;" k="41" />
<hkern u1="&#x2f;" u2="&#x38;" k="31" />
<hkern u1="&#x2f;" u2="&#x37;" k="20" />
<hkern u1="&#x2f;" u2="&#x36;" k="72" />
<hkern u1="&#x2f;" u2="&#x35;" k="41" />
<hkern u1="&#x2f;" u2="&#x34;" k="195" />
<hkern u1="&#x2f;" u2="&#x33;" k="20" />
<hkern u1="&#x2f;" u2="&#x32;" k="41" />
<hkern u1="&#x2f;" u2="&#x31;" k="-20" />
<hkern u1="&#x2f;" u2="&#x30;" k="72" />
<hkern u1="&#x2f;" u2="&#x2f;" k="334" />
<hkern u1="&#x30;" u2="&#x37;" k="55" />
<hkern u1="&#x30;" u2="&#x33;" k="20" />
<hkern u1="&#x30;" u2="&#x32;" k="20" />
<hkern u1="&#x30;" u2="&#x31;" k="10" />
<hkern u1="&#x30;" u2="&#x2f;" k="72" />
<hkern u1="&#x30;" u2="&#x2e;" k="41" />
<hkern u1="&#x30;" u2="&#x2c;" k="41" />
<hkern u1="&#x32;" u2="&#x37;" k="16" />
<hkern u1="&#x32;" u2="&#x34;" k="41" />
<hkern u1="&#x33;" u2="&#x39;" k="10" />
<hkern u1="&#x33;" u2="&#x37;" k="43" />
<hkern u1="&#x33;" u2="&#x35;" k="10" />
<hkern u1="&#x33;" u2="&#x2f;" k="20" />
<hkern u1="&#x34;" u2="&#x39;" k="20" />
<hkern u1="&#x34;" u2="&#x37;" k="68" />
<hkern u1="&#x34;" u2="&#x31;" k="41" />
<hkern u1="&#x34;" u2="&#x2f;" k="41" />
<hkern u1="&#x35;" u2="&#x39;" k="10" />
<hkern u1="&#x35;" u2="&#x37;" k="61" />
<hkern u1="&#x35;" u2="&#x33;" k="10" />
<hkern u1="&#x35;" u2="&#x32;" k="20" />
<hkern u1="&#x35;" u2="&#x2f;" k="41" />
<hkern u1="&#x36;" u2="&#x39;" k="20" />
<hkern u1="&#x36;" u2="&#x37;" k="37" />
<hkern u1="&#x36;" u2="&#x33;" k="20" />
<hkern u1="&#x36;" u2="&#x31;" k="27" />
<hkern u1="&#x36;" u2="&#x2f;" k="20" />
<hkern u1="&#x37;" u2="&#x2014;" k="61" />
<hkern u1="&#x37;" u2="&#x2013;" k="61" />
<hkern u1="&#x37;" u2="&#x39;" k="31" />
<hkern u1="&#x37;" u2="&#x38;" k="20" />
<hkern u1="&#x37;" u2="&#x36;" k="41" />
<hkern u1="&#x37;" u2="&#x35;" k="51" />
<hkern u1="&#x37;" u2="&#x34;" k="174" />
<hkern u1="&#x37;" u2="&#x33;" k="41" />
<hkern u1="&#x37;" u2="&#x32;" k="31" />
<hkern u1="&#x37;" u2="&#x31;" k="-20" />
<hkern u1="&#x37;" u2="&#x30;" k="41" />
<hkern u1="&#x37;" u2="&#x2f;" k="287" />
<hkern u1="&#x37;" u2="&#x2e;" k="205" />
<hkern u1="&#x37;" u2="&#x2d;" k="61" />
<hkern u1="&#x37;" u2="&#x2c;" k="205" />
<hkern u1="&#x38;" u2="&#x39;" k="10" />
<hkern u1="&#x38;" u2="&#x37;" k="20" />
<hkern u1="&#x39;" u2="&#x37;" k="31" />
<hkern u1="&#x39;" u2="&#x35;" k="10" />
<hkern u1="&#x39;" u2="&#x33;" k="20" />
<hkern u1="&#x39;" u2="&#x32;" k="20" />
<hkern u1="&#x39;" u2="&#x2f;" k="51" />
<hkern u1="&#x39;" u2="&#x2e;" k="20" />
<hkern u1="&#x39;" u2="&#x2c;" k="20" />
<hkern u1="&#x3a;" u2="Y" k="82" />
<hkern u1="&#x3a;" u2="W" k="31" />
<hkern u1="&#x3a;" u2="V" k="41" />
<hkern u1="&#x3a;" u2="T" k="45" />
<hkern u1="&#x3b;" u2="Y" k="82" />
<hkern u1="&#x3b;" u2="W" k="31" />
<hkern u1="&#x3b;" u2="V" k="41" />
<hkern u1="&#x3b;" u2="T" k="45" />
<hkern u1="A" u2="&#x2122;" k="205" />
<hkern u1="A" u2="&#x201d;" k="164" />
<hkern u1="A" u2="&#x201c;" k="164" />
<hkern u1="A" u2="&#x2019;" k="164" />
<hkern u1="A" u2="&#x2018;" k="164" />
<hkern u1="A" u2="&#x2014;" k="82" />
<hkern u1="A" u2="&#x2013;" k="82" />
<hkern u1="A" u2="&#xab;" k="41" />
<hkern u1="A" u2="y" k="96" />
<hkern u1="A" u2="w" k="106" />
<hkern u1="A" u2="v" k="137" />
<hkern u1="A" u2="u" k="20" />
<hkern u1="A" u2="t" k="61" />
<hkern u1="A" u2="q" k="51" />
<hkern u1="A" u2="o" k="51" />
<hkern u1="A" u2="g" k="51" />
<hkern u1="A" u2="f" k="41" />
<hkern u1="A" u2="e" k="51" />
<hkern u1="A" u2="d" k="51" />
<hkern u1="A" u2="c" k="51" />
<hkern u1="A" u2="\" k="246" />
<hkern u1="A" u2="Y" k="225" />
<hkern u1="A" u2="X" k="29" />
<hkern u1="A" u2="W" k="184" />
<hkern u1="A" u2="V" k="205" />
<hkern u1="A" u2="U" k="51" />
<hkern u1="A" u2="T" k="184" />
<hkern u1="A" u2="S" k="23" />
<hkern u1="A" u2="Q" k="88" />
<hkern u1="A" u2="O" k="88" />
<hkern u1="A" u2="G" k="88" />
<hkern u1="A" u2="C" k="88" />
<hkern u1="A" u2="A" k="29" />
<hkern u1="A" u2="&#x3f;" k="123" />
<hkern u1="A" u2="&#x2d;" k="82" />
<hkern u1="A" u2="&#x2a;" k="205" />
<hkern u1="B" u2="y" k="20" />
<hkern u1="B" u2="w" k="20" />
<hkern u1="B" u2="v" k="20" />
<hkern u1="B" u2="Y" k="61" />
<hkern u1="B" u2="X" k="41" />
<hkern u1="B" u2="W" k="31" />
<hkern u1="B" u2="V" k="41" />
<hkern u1="B" u2="T" k="27" />
<hkern u1="B" u2="&#x3f;" k="10" />
<hkern u1="B" u2="&#x26;" k="-20" />
<hkern u1="C" u2="&#x2014;" k="20" />
<hkern u1="C" u2="&#x2013;" k="20" />
<hkern u1="C" u2="y" k="20" />
<hkern u1="C" u2="x" k="20" />
<hkern u1="C" u2="w" k="20" />
<hkern u1="C" u2="v" k="20" />
<hkern u1="C" u2="q" k="20" />
<hkern u1="C" u2="o" k="20" />
<hkern u1="C" u2="g" k="20" />
<hkern u1="C" u2="e" k="20" />
<hkern u1="C" u2="d" k="20" />
<hkern u1="C" u2="c" k="20" />
<hkern u1="C" u2="Y" k="20" />
<hkern u1="C" u2="X" k="20" />
<hkern u1="C" u2="W" k="6" />
<hkern u1="C" u2="V" k="6" />
<hkern u1="C" u2="Q" k="41" />
<hkern u1="C" u2="O" k="41" />
<hkern u1="C" u2="G" k="41" />
<hkern u1="C" u2="C" k="41" />
<hkern u1="C" u2="&#x2d;" k="20" />
<hkern u1="D" u2="&#x2026;" k="82" />
<hkern u1="D" u2="&#x7d;" k="41" />
<hkern u1="D" u2="x" k="20" />
<hkern u1="D" u2="]" k="41" />
<hkern u1="D" u2="\" k="82" />
<hkern u1="D" u2="Z" k="86" />
<hkern u1="D" u2="Y" k="133" />
<hkern u1="D" u2="X" k="113" />
<hkern u1="D" u2="W" k="78" />
<hkern u1="D" u2="V" k="92" />
<hkern u1="D" u2="T" k="92" />
<hkern u1="D" u2="S" k="20" />
<hkern u1="D" u2="J" k="82" />
<hkern u1="D" u2="A" k="98" />
<hkern u1="D" u2="&#x3f;" k="41" />
<hkern u1="D" u2="&#x2f;" k="82" />
<hkern u1="D" u2="&#x2e;" k="82" />
<hkern u1="D" u2="&#x2c;" k="82" />
<hkern u1="D" u2="&#x29;" k="61" />
<hkern u1="E" u2="y" k="20" />
<hkern u1="E" u2="w" k="20" />
<hkern u1="E" u2="v" k="20" />
<hkern u1="E" u2="o" k="20" />
<hkern u1="E" u2="e" k="20" />
<hkern u1="E" u2="d" k="20" />
<hkern u1="E" u2="c" k="20" />
<hkern u1="F" u2="&#x203a;" k="31" />
<hkern u1="F" u2="&#x2026;" k="205" />
<hkern u1="F" u2="&#x201d;" k="-41" />
<hkern u1="F" u2="&#x2019;" k="-41" />
<hkern u1="F" u2="&#xbb;" k="31" />
<hkern u1="F" u2="z" k="31" />
<hkern u1="F" u2="y" k="31" />
<hkern u1="F" u2="w" k="20" />
<hkern u1="F" u2="v" k="31" />
<hkern u1="F" u2="s" k="20" />
<hkern u1="F" u2="q" k="20" />
<hkern u1="F" u2="o" k="31" />
<hkern u1="F" u2="g" k="20" />
<hkern u1="F" u2="e" k="31" />
<hkern u1="F" u2="d" k="20" />
<hkern u1="F" u2="c" k="31" />
<hkern u1="F" u2="a" k="51" />
<hkern u1="F" u2="Z" k="20" />
<hkern u1="F" u2="Q" k="12" />
<hkern u1="F" u2="O" k="12" />
<hkern u1="F" u2="J" k="225" />
<hkern u1="F" u2="G" k="12" />
<hkern u1="F" u2="C" k="12" />
<hkern u1="F" u2="A" k="164" />
<hkern u1="F" u2="&#x3f;" k="-20" />
<hkern u1="F" u2="&#x2f;" k="143" />
<hkern u1="F" u2="&#x2e;" k="205" />
<hkern u1="F" u2="&#x2c;" k="205" />
<hkern u1="F" u2="&#x26;" k="41" />
<hkern u1="G" u2="y" k="10" />
<hkern u1="G" u2="v" k="10" />
<hkern u1="G" u2="a" k="-20" />
<hkern u1="G" u2="\" k="31" />
<hkern u1="G" u2="Y" k="61" />
<hkern u1="G" u2="X" k="20" />
<hkern u1="G" u2="W" k="37" />
<hkern u1="G" u2="V" k="47" />
<hkern u1="G" u2="T" k="27" />
<hkern u1="G" u2="&#x3f;" k="20" />
<hkern u1="J" u2="&#x2026;" k="31" />
<hkern u1="J" u2="J" k="41" />
<hkern u1="J" u2="A" k="51" />
<hkern u1="J" u2="&#x2e;" k="31" />
<hkern u1="J" u2="&#x2c;" k="31" />
<hkern u1="K" u2="&#x2014;" k="102" />
<hkern u1="K" u2="&#x2013;" k="102" />
<hkern u1="K" u2="&#xab;" k="41" />
<hkern u1="K" u2="y" k="102" />
<hkern u1="K" u2="w" k="102" />
<hkern u1="K" u2="v" k="123" />
<hkern u1="K" u2="u" k="41" />
<hkern u1="K" u2="t" k="51" />
<hkern u1="K" u2="q" k="51" />
<hkern u1="K" u2="o" k="61" />
<hkern u1="K" u2="g" k="51" />
<hkern u1="K" u2="f" k="41" />
<hkern u1="K" u2="e" k="61" />
<hkern u1="K" u2="d" k="51" />
<hkern u1="K" u2="c" k="61" />
<hkern u1="K" u2="a" k="20" />
<hkern u1="K" u2="Y" k="68" />
<hkern u1="K" u2="W" k="61" />
<hkern u1="K" u2="V" k="61" />
<hkern u1="K" u2="U" k="31" />
<hkern u1="K" u2="T" k="20" />
<hkern u1="K" u2="S" k="20" />
<hkern u1="K" u2="Q" k="109" />
<hkern u1="K" u2="O" k="109" />
<hkern u1="K" u2="G" k="109" />
<hkern u1="K" u2="C" k="109" />
<hkern u1="K" u2="A" k="29" />
<hkern u1="K" u2="&#x2d;" k="102" />
<hkern u1="K" u2="&#x26;" k="6" />
<hkern u1="L" u2="&#x2122;" k="184" />
<hkern u1="L" u2="&#x201d;" k="82" />
<hkern u1="L" u2="&#x201c;" k="82" />
<hkern u1="L" u2="&#x2019;" k="82" />
<hkern u1="L" u2="&#x2018;" k="82" />
<hkern u1="L" u2="&#x2014;" k="82" />
<hkern u1="L" u2="&#x2013;" k="82" />
<hkern u1="L" u2="y" k="123" />
<hkern u1="L" u2="w" k="102" />
<hkern u1="L" u2="v" k="123" />
<hkern u1="L" u2="t" k="41" />
<hkern u1="L" u2="q" k="10" />
<hkern u1="L" u2="o" k="20" />
<hkern u1="L" u2="g" k="10" />
<hkern u1="L" u2="f" k="41" />
<hkern u1="L" u2="e" k="20" />
<hkern u1="L" u2="d" k="10" />
<hkern u1="L" u2="c" k="20" />
<hkern u1="L" u2="\" k="246" />
<hkern u1="L" u2="Y" k="266" />
<hkern u1="L" u2="W" k="205" />
<hkern u1="L" u2="V" k="236" />
<hkern u1="L" u2="U" k="41" />
<hkern u1="L" u2="T" k="205" />
<hkern u1="L" u2="Q" k="82" />
<hkern u1="L" u2="O" k="82" />
<hkern u1="L" u2="G" k="82" />
<hkern u1="L" u2="C" k="82" />
<hkern u1="L" u2="&#x3f;" k="123" />
<hkern u1="L" u2="&#x2d;" k="82" />
<hkern u1="L" u2="&#x2a;" k="164" />
<hkern u1="L" u2="&#x26;" k="6" />
<hkern u1="O" u2="&#x2026;" k="82" />
<hkern u1="O" u2="&#x7d;" k="41" />
<hkern u1="O" u2="x" k="10" />
<hkern u1="O" u2="]" k="41" />
<hkern u1="O" u2="\" k="82" />
<hkern u1="O" u2="Z" k="76" />
<hkern u1="O" u2="Y" k="123" />
<hkern u1="O" u2="X" k="102" />
<hkern u1="O" u2="W" k="78" />
<hkern u1="O" u2="V" k="88" />
<hkern u1="O" u2="T" k="78" />
<hkern u1="O" u2="S" k="10" />
<hkern u1="O" u2="J" k="61" />
<hkern u1="O" u2="A" k="88" />
<hkern u1="O" u2="&#x3f;" k="41" />
<hkern u1="O" u2="&#x2f;" k="82" />
<hkern u1="O" u2="&#x2e;" k="82" />
<hkern u1="O" u2="&#x2c;" k="82" />
<hkern u1="O" u2="&#x29;" k="61" />
<hkern u1="P" u2="&#x2026;" k="205" />
<hkern u1="P" u2="&#x201d;" k="-41" />
<hkern u1="P" u2="&#x2019;" k="-41" />
<hkern u1="P" u2="&#xab;" k="-20" />
<hkern u1="P" u2="y" k="-20" />
<hkern u1="P" u2="w" k="-20" />
<hkern u1="P" u2="v" k="-20" />
<hkern u1="P" u2="u" k="-10" />
<hkern u1="P" u2="t" k="-31" />
<hkern u1="P" u2="o" k="10" />
<hkern u1="P" u2="f" k="-31" />
<hkern u1="P" u2="e" k="10" />
<hkern u1="P" u2="c" k="10" />
<hkern u1="P" u2="a" k="20" />
<hkern u1="P" u2="Z" k="31" />
<hkern u1="P" u2="Y" k="20" />
<hkern u1="P" u2="X" k="61" />
<hkern u1="P" u2="W" k="10" />
<hkern u1="P" u2="V" k="20" />
<hkern u1="P" u2="J" k="205" />
<hkern u1="P" u2="A" k="143" />
<hkern u1="P" u2="&#x2f;" k="123" />
<hkern u1="P" u2="&#x2e;" k="205" />
<hkern u1="P" u2="&#x2c;" k="205" />
<hkern u1="P" u2="&#x26;" k="12" />
<hkern u1="Q" u2="Y" k="133" />
<hkern u1="Q" u2="W" k="78" />
<hkern u1="Q" u2="V" k="88" />
<hkern u1="Q" u2="T" k="78" />
<hkern u1="Q" u2="&#x3f;" k="41" />
<hkern u1="Q" u2="&#x29;" k="20" />
<hkern u1="R" u2="t" k="-20" />
<hkern u1="R" u2="q" k="10" />
<hkern u1="R" u2="o" k="20" />
<hkern u1="R" u2="g" k="10" />
<hkern u1="R" u2="f" k="-20" />
<hkern u1="R" u2="e" k="20" />
<hkern u1="R" u2="d" k="10" />
<hkern u1="R" u2="c" k="20" />
<hkern u1="R" u2="Y" k="51" />
<hkern u1="R" u2="W" k="31" />
<hkern u1="R" u2="V" k="41" />
<hkern u1="R" u2="T" k="6" />
<hkern u1="R" u2="J" k="10" />
<hkern u1="S" u2="z" k="10" />
<hkern u1="S" u2="y" k="31" />
<hkern u1="S" u2="x" k="31" />
<hkern u1="S" u2="w" k="20" />
<hkern u1="S" u2="v" k="31" />
<hkern u1="S" u2="t" k="10" />
<hkern u1="S" u2="f" k="10" />
<hkern u1="S" u2="\" k="41" />
<hkern u1="S" u2="Z" k="20" />
<hkern u1="S" u2="Y" k="61" />
<hkern u1="S" u2="X" k="51" />
<hkern u1="S" u2="W" k="51" />
<hkern u1="S" u2="V" k="61" />
<hkern u1="S" u2="T" k="31" />
<hkern u1="S" u2="S" k="20" />
<hkern u1="S" u2="A" k="31" />
<hkern u1="S" u2="&#x3f;" k="20" />
<hkern u1="T" u2="&#x203a;" k="143" />
<hkern u1="T" u2="&#x2026;" k="205" />
<hkern u1="T" u2="&#x2014;" k="184" />
<hkern u1="T" u2="&#x2013;" k="184" />
<hkern u1="T" u2="&#xbb;" k="143" />
<hkern u1="T" u2="&#xab;" k="184" />
<hkern u1="T" u2="z" k="182" />
<hkern u1="T" u2="y" k="133" />
<hkern u1="T" u2="x" k="133" />
<hkern u1="T" u2="w" k="119" />
<hkern u1="T" u2="v" k="133" />
<hkern u1="T" u2="u" k="133" />
<hkern u1="T" u2="t" k="59" />
<hkern u1="T" u2="s" k="201" />
<hkern u1="T" u2="r" k="147" />
<hkern u1="T" u2="q" k="213" />
<hkern u1="T" u2="p" k="147" />
<hkern u1="T" u2="o" k="233" />
<hkern u1="T" u2="n" k="147" />
<hkern u1="T" u2="m" k="147" />
<hkern u1="T" u2="l" k="16" />
<hkern u1="T" u2="j" k="39" />
<hkern u1="T" u2="i" k="39" />
<hkern u1="T" u2="h" k="12" />
<hkern u1="T" u2="g" k="213" />
<hkern u1="T" u2="f" k="74" />
<hkern u1="T" u2="e" k="233" />
<hkern u1="T" u2="d" k="213" />
<hkern u1="T" u2="c" k="233" />
<hkern u1="T" u2="a" k="233" />
<hkern u1="T" u2="Z" k="27" />
<hkern u1="T" u2="S" k="31" />
<hkern u1="T" u2="Q" k="78" />
<hkern u1="T" u2="O" k="78" />
<hkern u1="T" u2="J" k="225" />
<hkern u1="T" u2="G" k="78" />
<hkern u1="T" u2="C" k="78" />
<hkern u1="T" u2="A" k="184" />
<hkern u1="T" u2="&#x3b;" k="45" />
<hkern u1="T" u2="&#x3a;" k="45" />
<hkern u1="T" u2="&#x2f;" k="184" />
<hkern u1="T" u2="&#x2e;" k="205" />
<hkern u1="T" u2="&#x2d;" k="184" />
<hkern u1="T" u2="&#x2c;" k="205" />
<hkern u1="T" u2="&#x26;" k="106" />
<hkern u1="U" u2="&#x2026;" k="31" />
<hkern u1="U" u2="x" k="10" />
<hkern u1="U" u2="X" k="20" />
<hkern u1="U" u2="J" k="41" />
<hkern u1="U" u2="A" k="51" />
<hkern u1="U" u2="&#x2f;" k="31" />
<hkern u1="U" u2="&#x2e;" k="31" />
<hkern u1="U" u2="&#x2c;" k="31" />
<hkern u1="V" u2="&#x203a;" k="82" />
<hkern u1="V" u2="&#x2026;" k="246" />
<hkern u1="V" u2="&#x2014;" k="82" />
<hkern u1="V" u2="&#x2013;" k="82" />
<hkern u1="V" u2="&#xbb;" k="82" />
<hkern u1="V" u2="&#xab;" k="123" />
<hkern u1="V" u2="z" k="113" />
<hkern u1="V" u2="y" k="82" />
<hkern u1="V" u2="x" k="102" />
<hkern u1="V" u2="w" k="72" />
<hkern u1="V" u2="v" k="82" />
<hkern u1="V" u2="u" k="82" />
<hkern u1="V" u2="t" k="41" />
<hkern u1="V" u2="s" k="123" />
<hkern u1="V" u2="r" k="82" />
<hkern u1="V" u2="q" k="133" />
<hkern u1="V" u2="p" k="82" />
<hkern u1="V" u2="o" k="143" />
<hkern u1="V" u2="n" k="82" />
<hkern u1="V" u2="m" k="82" />
<hkern u1="V" u2="l" k="20" />
<hkern u1="V" u2="j" k="41" />
<hkern u1="V" u2="i" k="41" />
<hkern u1="V" u2="g" k="133" />
<hkern u1="V" u2="f" k="51" />
<hkern u1="V" u2="e" k="143" />
<hkern u1="V" u2="d" k="133" />
<hkern u1="V" u2="c" k="143" />
<hkern u1="V" u2="a" k="143" />
<hkern u1="V" u2="Z" k="20" />
<hkern u1="V" u2="Y" k="41" />
<hkern u1="V" u2="X" k="41" />
<hkern u1="V" u2="W" k="20" />
<hkern u1="V" u2="V" k="20" />
<hkern u1="V" u2="S" k="51" />
<hkern u1="V" u2="Q" k="88" />
<hkern u1="V" u2="O" k="88" />
<hkern u1="V" u2="J" k="246" />
<hkern u1="V" u2="G" k="88" />
<hkern u1="V" u2="C" k="88" />
<hkern u1="V" u2="A" k="205" />
<hkern u1="V" u2="&#x3b;" k="41" />
<hkern u1="V" u2="&#x3a;" k="41" />
<hkern u1="V" u2="&#x2f;" k="246" />
<hkern u1="V" u2="&#x2e;" k="246" />
<hkern u1="V" u2="&#x2d;" k="82" />
<hkern u1="V" u2="&#x2c;" k="246" />
<hkern u1="V" u2="&#x26;" k="92" />
<hkern u1="W" u2="&#x203a;" k="72" />
<hkern u1="W" u2="&#x2026;" k="205" />
<hkern u1="W" u2="&#x2014;" k="72" />
<hkern u1="W" u2="&#x2013;" k="72" />
<hkern u1="W" u2="&#xbb;" k="72" />
<hkern u1="W" u2="&#xab;" k="102" />
<hkern u1="W" u2="z" k="113" />
<hkern u1="W" u2="y" k="72" />
<hkern u1="W" u2="x" k="82" />
<hkern u1="W" u2="w" k="72" />
<hkern u1="W" u2="v" k="72" />
<hkern u1="W" u2="u" k="72" />
<hkern u1="W" u2="t" k="51" />
<hkern u1="W" u2="s" k="123" />
<hkern u1="W" u2="r" k="72" />
<hkern u1="W" u2="q" k="123" />
<hkern u1="W" u2="p" k="72" />
<hkern u1="W" u2="o" k="133" />
<hkern u1="W" u2="n" k="72" />
<hkern u1="W" u2="m" k="72" />
<hkern u1="W" u2="l" k="20" />
<hkern u1="W" u2="j" k="31" />
<hkern u1="W" u2="i" k="31" />
<hkern u1="W" u2="g" k="123" />
<hkern u1="W" u2="f" k="61" />
<hkern u1="W" u2="e" k="133" />
<hkern u1="W" u2="d" k="123" />
<hkern u1="W" u2="c" k="133" />
<hkern u1="W" u2="a" k="143" />
<hkern u1="W" u2="Z" k="20" />
<hkern u1="W" u2="Y" k="41" />
<hkern u1="W" u2="X" k="31" />
<hkern u1="W" u2="W" k="20" />
<hkern u1="W" u2="V" k="20" />
<hkern u1="W" u2="S" k="41" />
<hkern u1="W" u2="Q" k="78" />
<hkern u1="W" u2="O" k="78" />
<hkern u1="W" u2="J" k="215" />
<hkern u1="W" u2="G" k="78" />
<hkern u1="W" u2="C" k="78" />
<hkern u1="W" u2="A" k="184" />
<hkern u1="W" u2="&#x3b;" k="31" />
<hkern u1="W" u2="&#x3a;" k="31" />
<hkern u1="W" u2="&#x2f;" k="205" />
<hkern u1="W" u2="&#x2e;" k="205" />
<hkern u1="W" u2="&#x2d;" k="72" />
<hkern u1="W" u2="&#x2c;" k="205" />
<hkern u1="W" u2="&#x26;" k="72" />
<hkern u1="X" u2="&#x203a;" k="41" />
<hkern u1="X" u2="&#x2014;" k="102" />
<hkern u1="X" u2="&#x2013;" k="102" />
<hkern u1="X" u2="&#xbb;" k="41" />
<hkern u1="X" u2="&#xab;" k="102" />
<hkern u1="X" u2="y" k="82" />
<hkern u1="X" u2="w" k="82" />
<hkern u1="X" u2="v" k="102" />
<hkern u1="X" u2="u" k="41" />
<hkern u1="X" u2="t" k="41" />
<hkern u1="X" u2="q" k="82" />
<hkern u1="X" u2="o" k="92" />
<hkern u1="X" u2="l" k="20" />
<hkern u1="X" u2="j" k="20" />
<hkern u1="X" u2="i" k="20" />
<hkern u1="X" u2="g" k="82" />
<hkern u1="X" u2="f" k="41" />
<hkern u1="X" u2="e" k="92" />
<hkern u1="X" u2="d" k="82" />
<hkern u1="X" u2="c" k="92" />
<hkern u1="X" u2="a" k="20" />
<hkern u1="X" u2="Y" k="55" />
<hkern u1="X" u2="W" k="31" />
<hkern u1="X" u2="V" k="41" />
<hkern u1="X" u2="U" k="20" />
<hkern u1="X" u2="S" k="61" />
<hkern u1="X" u2="Q" k="102" />
<hkern u1="X" u2="O" k="102" />
<hkern u1="X" u2="J" k="20" />
<hkern u1="X" u2="G" k="102" />
<hkern u1="X" u2="C" k="102" />
<hkern u1="X" u2="A" k="29" />
<hkern u1="X" u2="&#x3f;" k="31" />
<hkern u1="X" u2="&#x2d;" k="102" />
<hkern u1="X" u2="&#x26;" k="20" />
<hkern u1="Y" u2="&#x203a;" k="154" />
<hkern u1="Y" u2="&#x2026;" k="266" />
<hkern u1="Y" u2="&#x2014;" k="164" />
<hkern u1="Y" u2="&#x2013;" k="164" />
<hkern u1="Y" u2="&#xbb;" k="154" />
<hkern u1="Y" u2="&#xab;" k="205" />
<hkern u1="Y" u2="z" k="164" />
<hkern u1="Y" u2="y" k="123" />
<hkern u1="Y" u2="x" k="143" />
<hkern u1="Y" u2="w" k="113" />
<hkern u1="Y" u2="v" k="123" />
<hkern u1="Y" u2="u" k="154" />
<hkern u1="Y" u2="t" k="61" />
<hkern u1="Y" u2="s" k="205" />
<hkern u1="Y" u2="r" k="154" />
<hkern u1="Y" u2="q" k="215" />
<hkern u1="Y" u2="p" k="154" />
<hkern u1="Y" u2="o" k="225" />
<hkern u1="Y" u2="n" k="154" />
<hkern u1="Y" u2="m" k="154" />
<hkern u1="Y" u2="l" k="20" />
<hkern u1="Y" u2="j" k="41" />
<hkern u1="Y" u2="i" k="41" />
<hkern u1="Y" u2="g" k="215" />
<hkern u1="Y" u2="f" k="82" />
<hkern u1="Y" u2="e" k="225" />
<hkern u1="Y" u2="d" k="215" />
<hkern u1="Y" u2="c" k="225" />
<hkern u1="Y" u2="a" k="205" />
<hkern u1="Y" u2="Z" k="20" />
<hkern u1="Y" u2="Y" k="29" />
<hkern u1="Y" u2="X" k="55" />
<hkern u1="Y" u2="W" k="41" />
<hkern u1="Y" u2="V" k="41" />
<hkern u1="Y" u2="S" k="72" />
<hkern u1="Y" u2="Q" k="123" />
<hkern u1="Y" u2="O" k="123" />
<hkern u1="Y" u2="J" k="266" />
<hkern u1="Y" u2="G" k="123" />
<hkern u1="Y" u2="C" k="123" />
<hkern u1="Y" u2="A" k="225" />
<hkern u1="Y" u2="&#x3b;" k="82" />
<hkern u1="Y" u2="&#x3a;" k="82" />
<hkern u1="Y" u2="&#x2f;" k="225" />
<hkern u1="Y" u2="&#x2e;" k="266" />
<hkern u1="Y" u2="&#x2d;" k="164" />
<hkern u1="Y" u2="&#x2c;" k="266" />
<hkern u1="Y" u2="&#x26;" k="123" />
<hkern u1="Z" u2="&#x2014;" k="61" />
<hkern u1="Z" u2="&#x2013;" k="61" />
<hkern u1="Z" u2="&#xab;" k="41" />
<hkern u1="Z" u2="y" k="31" />
<hkern u1="Z" u2="w" k="31" />
<hkern u1="Z" u2="v" k="41" />
<hkern u1="Z" u2="q" k="41" />
<hkern u1="Z" u2="o" k="51" />
<hkern u1="Z" u2="g" k="41" />
<hkern u1="Z" u2="f" k="20" />
<hkern u1="Z" u2="e" k="51" />
<hkern u1="Z" u2="d" k="41" />
<hkern u1="Z" u2="c" k="51" />
<hkern u1="Z" u2="Z" k="20" />
<hkern u1="Z" u2="S" k="20" />
<hkern u1="Z" u2="Q" k="76" />
<hkern u1="Z" u2="O" k="76" />
<hkern u1="Z" u2="G" k="76" />
<hkern u1="Z" u2="C" k="76" />
<hkern u1="Z" u2="&#x2d;" k="61" />
<hkern u1="Z" u2="&#x26;" k="10" />
<hkern u1="[" u2="y" k="20" />
<hkern u1="[" u2="x" k="20" />
<hkern u1="[" u2="w" k="41" />
<hkern u1="[" u2="v" k="41" />
<hkern u1="[" u2="s" k="31" />
<hkern u1="[" u2="q" k="41" />
<hkern u1="[" u2="o" k="41" />
<hkern u1="[" u2="j" k="-61" />
<hkern u1="[" u2="e" k="41" />
<hkern u1="[" u2="d" k="41" />
<hkern u1="[" u2="c" k="41" />
<hkern u1="[" u2="a" k="20" />
<hkern u1="[" u2="Q" k="41" />
<hkern u1="[" u2="O" k="41" />
<hkern u1="[" u2="J" k="20" />
<hkern u1="[" u2="G" k="41" />
<hkern u1="[" u2="C" k="41" />
<hkern u1="\" u2="y" k="123" />
<hkern u1="\" u2="w" k="123" />
<hkern u1="\" u2="v" k="143" />
<hkern u1="\" u2="t" k="61" />
<hkern u1="\" u2="j" k="-61" />
<hkern u1="\" u2="f" k="20" />
<hkern u1="\" u2="Y" k="225" />
<hkern u1="\" u2="W" k="205" />
<hkern u1="\" u2="V" k="246" />
<hkern u1="\" u2="U" k="31" />
<hkern u1="\" u2="T" k="184" />
<hkern u1="\" u2="Q" k="82" />
<hkern u1="\" u2="O" k="82" />
<hkern u1="\" u2="G" k="82" />
<hkern u1="\" u2="C" k="82" />
<hkern u1="a" u2="y" k="41" />
<hkern u1="a" u2="w" k="41" />
<hkern u1="a" u2="v" k="41" />
<hkern u1="a" u2="t" k="10" />
<hkern u1="a" u2="\" k="154" />
<hkern u1="a" u2="&#x3f;" k="72" />
<hkern u1="a" u2="&#x2a;" k="31" />
<hkern u1="b" u2="&#x203a;" k="10" />
<hkern u1="b" u2="&#x2026;" k="20" />
<hkern u1="b" u2="&#x201c;" k="20" />
<hkern u1="b" u2="&#x2018;" k="20" />
<hkern u1="b" u2="&#xbb;" k="10" />
<hkern u1="b" u2="&#x7d;" k="31" />
<hkern u1="b" u2="z" k="31" />
<hkern u1="b" u2="y" k="51" />
<hkern u1="b" u2="x" k="61" />
<hkern u1="b" u2="w" k="41" />
<hkern u1="b" u2="v" k="51" />
<hkern u1="b" u2="]" k="41" />
<hkern u1="b" u2="\" k="143" />
<hkern u1="b" u2="&#x3f;" k="72" />
<hkern u1="b" u2="&#x2e;" k="20" />
<hkern u1="b" u2="&#x2c;" k="20" />
<hkern u1="b" u2="&#x2a;" k="31" />
<hkern u1="b" u2="&#x29;" k="61" />
<hkern u1="c" u2="&#x203a;" k="-20" />
<hkern u1="c" u2="&#x2039;" k="20" />
<hkern u1="c" u2="&#x201d;" k="-31" />
<hkern u1="c" u2="&#x201c;" k="-20" />
<hkern u1="c" u2="&#x2019;" k="-31" />
<hkern u1="c" u2="&#x2018;" k="-20" />
<hkern u1="c" u2="&#xbb;" k="-20" />
<hkern u1="c" u2="&#xab;" k="20" />
<hkern u1="c" u2="y" k="10" />
<hkern u1="c" u2="x" k="20" />
<hkern u1="c" u2="w" k="10" />
<hkern u1="c" u2="v" k="10" />
<hkern u1="c" u2="q" k="20" />
<hkern u1="c" u2="o" k="31" />
<hkern u1="c" u2="g" k="20" />
<hkern u1="c" u2="e" k="31" />
<hkern u1="c" u2="d" k="20" />
<hkern u1="c" u2="c" k="31" />
<hkern u1="c" u2="\" k="82" />
<hkern u1="c" u2="&#x3f;" k="31" />
<hkern u1="c" u2="&#x29;" k="31" />
<hkern u1="e" u2="&#x2026;" k="20" />
<hkern u1="e" u2="&#x7d;" k="20" />
<hkern u1="e" u2="z" k="31" />
<hkern u1="e" u2="y" k="51" />
<hkern u1="e" u2="x" k="61" />
<hkern u1="e" u2="w" k="51" />
<hkern u1="e" u2="v" k="51" />
<hkern u1="e" u2="]" k="41" />
<hkern u1="e" u2="\" k="164" />
<hkern u1="e" u2="&#x3f;" k="82" />
<hkern u1="e" u2="&#x2e;" k="20" />
<hkern u1="e" u2="&#x2c;" k="20" />
<hkern u1="e" u2="&#x2a;" k="41" />
<hkern u1="e" u2="&#x29;" k="61" />
<hkern u1="f" u2="&#x2122;" k="-92" />
<hkern u1="f" u2="&#x2039;" k="31" />
<hkern u1="f" u2="&#x2026;" k="92" />
<hkern u1="f" u2="&#x201d;" k="-72" />
<hkern u1="f" u2="&#x201c;" k="-61" />
<hkern u1="f" u2="&#x2019;" k="-72" />
<hkern u1="f" u2="&#x2018;" k="-61" />
<hkern u1="f" u2="&#xab;" k="31" />
<hkern u1="f" u2="&#x7d;" k="-61" />
<hkern u1="f" u2="z" k="20" />
<hkern u1="f" u2="q" k="20" />
<hkern u1="f" u2="o" k="20" />
<hkern u1="f" u2="g" k="20" />
<hkern u1="f" u2="e" k="20" />
<hkern u1="f" u2="d" k="20" />
<hkern u1="f" u2="c" k="20" />
<hkern u1="f" u2="a" k="31" />
<hkern u1="f" u2="]" k="-41" />
<hkern u1="f" u2="\" k="-61" />
<hkern u1="f" u2="&#x3f;" k="-72" />
<hkern u1="f" u2="&#x2f;" k="92" />
<hkern u1="f" u2="&#x2e;" k="92" />
<hkern u1="f" u2="&#x2c;" k="92" />
<hkern u1="f" u2="&#x2a;" k="-61" />
<hkern u1="f" u2="&#x29;" k="-61" />
<hkern u1="g" u2="\" k="102" />
<hkern u1="h" u2="y" k="31" />
<hkern u1="h" u2="w" k="31" />
<hkern u1="h" u2="v" k="41" />
<hkern u1="h" u2="\" k="154" />
<hkern u1="h" u2="&#x3f;" k="61" />
<hkern u1="h" u2="&#x2a;" k="31" />
<hkern u1="k" u2="&#x203a;" k="20" />
<hkern u1="k" u2="&#x2039;" k="41" />
<hkern u1="k" u2="&#x2014;" k="41" />
<hkern u1="k" u2="&#x2013;" k="41" />
<hkern u1="k" u2="&#xbb;" k="20" />
<hkern u1="k" u2="&#xab;" k="41" />
<hkern u1="k" u2="y" k="31" />
<hkern u1="k" u2="w" k="41" />
<hkern u1="k" u2="v" k="41" />
<hkern u1="k" u2="u" k="20" />
<hkern u1="k" u2="t" k="20" />
<hkern u1="k" u2="q" k="51" />
<hkern u1="k" u2="o" k="51" />
<hkern u1="k" u2="g" k="51" />
<hkern u1="k" u2="e" k="51" />
<hkern u1="k" u2="d" k="51" />
<hkern u1="k" u2="c" k="51" />
<hkern u1="k" u2="a" k="20" />
<hkern u1="k" u2="\" k="82" />
<hkern u1="k" u2="&#x2d;" k="41" />
<hkern u1="m" u2="y" k="31" />
<hkern u1="m" u2="w" k="31" />
<hkern u1="m" u2="v" k="41" />
<hkern u1="m" u2="\" k="154" />
<hkern u1="m" u2="&#x3f;" k="61" />
<hkern u1="m" u2="&#x2a;" k="31" />
<hkern u1="n" u2="y" k="31" />
<hkern u1="n" u2="w" k="31" />
<hkern u1="n" u2="v" k="41" />
<hkern u1="n" u2="\" k="154" />
<hkern u1="n" u2="&#x3f;" k="61" />
<hkern u1="n" u2="&#x2a;" k="31" />
<hkern u1="o" u2="&#x203a;" k="20" />
<hkern u1="o" u2="&#x2026;" k="41" />
<hkern u1="o" u2="&#x201c;" k="41" />
<hkern u1="o" u2="&#x2018;" k="41" />
<hkern u1="o" u2="&#xbb;" k="20" />
<hkern u1="o" u2="&#x7d;" k="31" />
<hkern u1="o" u2="z" k="41" />
<hkern u1="o" u2="y" k="61" />
<hkern u1="o" u2="x" k="72" />
<hkern u1="o" u2="w" k="51" />
<hkern u1="o" u2="v" k="61" />
<hkern u1="o" u2="]" k="41" />
<hkern u1="o" u2="\" k="164" />
<hkern u1="o" u2="&#x3f;" k="102" />
<hkern u1="o" u2="&#x2e;" k="41" />
<hkern u1="o" u2="&#x2c;" k="41" />
<hkern u1="o" u2="&#x2a;" k="41" />
<hkern u1="o" u2="&#x29;" k="61" />
<hkern u1="p" u2="&#x203a;" k="10" />
<hkern u1="p" u2="&#x2026;" k="20" />
<hkern u1="p" u2="&#x201c;" k="20" />
<hkern u1="p" u2="&#x2018;" k="20" />
<hkern u1="p" u2="&#xbb;" k="10" />
<hkern u1="p" u2="&#x7d;" k="31" />
<hkern u1="p" u2="z" k="31" />
<hkern u1="p" u2="y" k="51" />
<hkern u1="p" u2="x" k="61" />
<hkern u1="p" u2="w" k="41" />
<hkern u1="p" u2="v" k="51" />
<hkern u1="p" u2="]" k="41" />
<hkern u1="p" u2="\" k="143" />
<hkern u1="p" u2="&#x3f;" k="72" />
<hkern u1="p" u2="&#x2e;" k="20" />
<hkern u1="p" u2="&#x2c;" k="20" />
<hkern u1="p" u2="&#x2a;" k="31" />
<hkern u1="p" u2="&#x29;" k="61" />
<hkern u1="q" u2="\" k="102" />
<hkern u1="r" u2="&#x2039;" k="20" />
<hkern u1="r" u2="&#x2026;" k="184" />
<hkern u1="r" u2="&#x201d;" k="-72" />
<hkern u1="r" u2="&#x201c;" k="-41" />
<hkern u1="r" u2="&#x2019;" k="-72" />
<hkern u1="r" u2="&#x2018;" k="-41" />
<hkern u1="r" u2="&#xab;" k="20" />
<hkern u1="r" u2="z" k="20" />
<hkern u1="r" u2="q" k="31" />
<hkern u1="r" u2="o" k="37" />
<hkern u1="r" u2="g" k="31" />
<hkern u1="r" u2="e" k="37" />
<hkern u1="r" u2="d" k="31" />
<hkern u1="r" u2="c" k="37" />
<hkern u1="r" u2="a" k="51" />
<hkern u1="r" u2="\" k="61" />
<hkern u1="r" u2="&#x2f;" k="154" />
<hkern u1="r" u2="&#x2e;" k="184" />
<hkern u1="r" u2="&#x2c;" k="184" />
<hkern u1="r" u2="&#x2a;" k="-41" />
<hkern u1="s" u2="&#x2039;" k="20" />
<hkern u1="s" u2="&#x201c;" k="20" />
<hkern u1="s" u2="&#x2018;" k="20" />
<hkern u1="s" u2="&#xab;" k="20" />
<hkern u1="s" u2="&#x7d;" k="20" />
<hkern u1="s" u2="z" k="20" />
<hkern u1="s" u2="y" k="31" />
<hkern u1="s" u2="x" k="51" />
<hkern u1="s" u2="w" k="31" />
<hkern u1="s" u2="v" k="41" />
<hkern u1="s" u2="t" k="20" />
<hkern u1="s" u2="s" k="20" />
<hkern u1="s" u2="]" k="31" />
<hkern u1="s" u2="\" k="154" />
<hkern u1="s" u2="&#x3f;" k="72" />
<hkern u1="s" u2="&#x29;" k="41" />
<hkern u1="t" u2="&#x2039;" k="20" />
<hkern u1="t" u2="&#x201d;" k="-20" />
<hkern u1="t" u2="&#x2019;" k="-20" />
<hkern u1="t" u2="&#xab;" k="20" />
<hkern u1="t" u2="q" k="31" />
<hkern u1="t" u2="o" k="31" />
<hkern u1="t" u2="g" k="31" />
<hkern u1="t" u2="e" k="31" />
<hkern u1="t" u2="d" k="31" />
<hkern u1="t" u2="c" k="31" />
<hkern u1="t" u2="\" k="82" />
<hkern u1="u" u2="\" k="102" />
<hkern u1="v" u2="&#x203a;" k="31" />
<hkern u1="v" u2="&#x2039;" k="61" />
<hkern u1="v" u2="&#x2026;" k="174" />
<hkern u1="v" u2="&#x2014;" k="31" />
<hkern u1="v" u2="&#x2013;" k="31" />
<hkern u1="v" u2="&#xbb;" k="31" />
<hkern u1="v" u2="&#xab;" k="61" />
<hkern u1="v" u2="&#x7d;" k="20" />
<hkern u1="v" u2="z" k="10" />
<hkern u1="v" u2="y" k="31" />
<hkern u1="v" u2="x" k="20" />
<hkern u1="v" u2="w" k="31" />
<hkern u1="v" u2="v" k="31" />
<hkern u1="v" u2="s" k="41" />
<hkern u1="v" u2="q" k="51" />
<hkern u1="v" u2="o" k="61" />
<hkern u1="v" u2="g" k="51" />
<hkern u1="v" u2="e" k="61" />
<hkern u1="v" u2="d" k="51" />
<hkern u1="v" u2="c" k="61" />
<hkern u1="v" u2="a" k="51" />
<hkern u1="v" u2="]" k="41" />
<hkern u1="v" u2="\" k="102" />
<hkern u1="v" u2="&#x3f;" k="20" />
<hkern u1="v" u2="&#x2f;" k="143" />
<hkern u1="v" u2="&#x2e;" k="174" />
<hkern u1="v" u2="&#x2d;" k="31" />
<hkern u1="v" u2="&#x2c;" k="174" />
<hkern u1="w" u2="&#x203a;" k="20" />
<hkern u1="w" u2="&#x2039;" k="41" />
<hkern u1="w" u2="&#x2026;" k="143" />
<hkern u1="w" u2="&#x2014;" k="20" />
<hkern u1="w" u2="&#x2013;" k="20" />
<hkern u1="w" u2="&#xbb;" k="20" />
<hkern u1="w" u2="&#xab;" k="41" />
<hkern u1="w" u2="&#x7d;" k="20" />
<hkern u1="w" u2="z" k="10" />
<hkern u1="w" u2="y" k="20" />
<hkern u1="w" u2="x" k="20" />
<hkern u1="w" u2="w" k="20" />
<hkern u1="w" u2="v" k="31" />
<hkern u1="w" u2="s" k="31" />
<hkern u1="w" u2="q" k="41" />
<hkern u1="w" u2="o" k="51" />
<hkern u1="w" u2="g" k="41" />
<hkern u1="w" u2="e" k="51" />
<hkern u1="w" u2="d" k="41" />
<hkern u1="w" u2="c" k="51" />
<hkern u1="w" u2="a" k="41" />
<hkern u1="w" u2="]" k="41" />
<hkern u1="w" u2="\" k="102" />
<hkern u1="w" u2="&#x3f;" k="20" />
<hkern u1="w" u2="&#x2f;" k="123" />
<hkern u1="w" u2="&#x2e;" k="143" />
<hkern u1="w" u2="&#x2d;" k="20" />
<hkern u1="w" u2="&#x2c;" k="143" />
<hkern u1="x" u2="&#x203a;" k="31" />
<hkern u1="x" u2="&#x2039;" k="92" />
<hkern u1="x" u2="&#x2014;" k="61" />
<hkern u1="x" u2="&#x2013;" k="61" />
<hkern u1="x" u2="&#xbb;" k="31" />
<hkern u1="x" u2="&#xab;" k="92" />
<hkern u1="x" u2="&#x7d;" k="20" />
<hkern u1="x" u2="y" k="20" />
<hkern u1="x" u2="w" k="20" />
<hkern u1="x" u2="v" k="20" />
<hkern u1="x" u2="s" k="41" />
<hkern u1="x" u2="q" k="61" />
<hkern u1="x" u2="o" k="72" />
<hkern u1="x" u2="g" k="61" />
<hkern u1="x" u2="e" k="72" />
<hkern u1="x" u2="d" k="61" />
<hkern u1="x" u2="c" k="72" />
<hkern u1="x" u2="a" k="31" />
<hkern u1="x" u2="]" k="20" />
<hkern u1="x" u2="\" k="102" />
<hkern u1="x" u2="&#x3f;" k="31" />
<hkern u1="x" u2="&#x2d;" k="61" />
<hkern u1="y" u2="&#x203a;" k="31" />
<hkern u1="y" u2="&#x2039;" k="61" />
<hkern u1="y" u2="&#x2026;" k="174" />
<hkern u1="y" u2="&#x2014;" k="31" />
<hkern u1="y" u2="&#x2013;" k="31" />
<hkern u1="y" u2="&#xbb;" k="31" />
<hkern u1="y" u2="&#xab;" k="61" />
<hkern u1="y" u2="&#x7d;" k="20" />
<hkern u1="y" u2="z" k="10" />
<hkern u1="y" u2="y" k="20" />
<hkern u1="y" u2="x" k="20" />
<hkern u1="y" u2="w" k="20" />
<hkern u1="y" u2="v" k="31" />
<hkern u1="y" u2="s" k="41" />
<hkern u1="y" u2="q" k="51" />
<hkern u1="y" u2="o" k="61" />
<hkern u1="y" u2="g" k="51" />
<hkern u1="y" u2="e" k="61" />
<hkern u1="y" u2="d" k="51" />
<hkern u1="y" u2="c" k="61" />
<hkern u1="y" u2="a" k="51" />
<hkern u1="y" u2="]" k="41" />
<hkern u1="y" u2="\" k="102" />
<hkern u1="y" u2="&#x3f;" k="20" />
<hkern u1="y" u2="&#x2f;" k="143" />
<hkern u1="y" u2="&#x2e;" k="174" />
<hkern u1="y" u2="&#x2d;" k="31" />
<hkern u1="y" u2="&#x2c;" k="174" />
<hkern u1="z" u2="&#x2039;" k="31" />
<hkern u1="z" u2="&#xab;" k="31" />
<hkern u1="z" u2="q" k="31" />
<hkern u1="z" u2="o" k="31" />
<hkern u1="z" u2="g" k="31" />
<hkern u1="z" u2="e" k="31" />
<hkern u1="z" u2="d" k="31" />
<hkern u1="z" u2="c" k="31" />
<hkern u1="z" u2="\" k="92" />
<hkern u1="&#x7b;" u2="z" k="20" />
<hkern u1="&#x7b;" u2="y" k="20" />
<hkern u1="&#x7b;" u2="x" k="20" />
<hkern u1="&#x7b;" u2="w" k="20" />
<hkern u1="&#x7b;" u2="v" k="20" />
<hkern u1="&#x7b;" u2="s" k="20" />
<hkern u1="&#x7b;" u2="q" k="31" />
<hkern u1="&#x7b;" u2="o" k="31" />
<hkern u1="&#x7b;" u2="j" k="-72" />
<hkern u1="&#x7b;" u2="g" k="20" />
<hkern u1="&#x7b;" u2="e" k="31" />
<hkern u1="&#x7b;" u2="d" k="31" />
<hkern u1="&#x7b;" u2="c" k="31" />
<hkern u1="&#x7b;" u2="Q" k="41" />
<hkern u1="&#x7b;" u2="O" k="41" />
<hkern u1="&#x7b;" u2="J" k="20" />
<hkern u1="&#x7b;" u2="G" k="41" />
<hkern u1="&#x7b;" u2="C" k="41" />
<hkern u1="&#xa3;" u2="&#x34;" k="31" />
<hkern u1="&#xa5;" u2="&#x34;" k="41" />
<hkern u1="&#xab;" u2="y" k="31" />
<hkern u1="&#xab;" u2="x" k="31" />
<hkern u1="&#xab;" u2="w" k="20" />
<hkern u1="&#xab;" u2="v" k="31" />
<hkern u1="&#xab;" u2="q" k="10" />
<hkern u1="&#xab;" u2="o" k="20" />
<hkern u1="&#xab;" u2="g" k="10" />
<hkern u1="&#xab;" u2="e" k="20" />
<hkern u1="&#xab;" u2="d" k="10" />
<hkern u1="&#xab;" u2="c" k="20" />
<hkern u1="&#xab;" u2="Y" k="154" />
<hkern u1="&#xab;" u2="X" k="41" />
<hkern u1="&#xab;" u2="W" k="72" />
<hkern u1="&#xab;" u2="V" k="82" />
<hkern u1="&#xab;" u2="T" k="143" />
<hkern u1="&#xbb;" u2="z" k="41" />
<hkern u1="&#xbb;" u2="y" k="61" />
<hkern u1="&#xbb;" u2="x" k="92" />
<hkern u1="&#xbb;" u2="w" k="41" />
<hkern u1="&#xbb;" u2="v" k="61" />
<hkern u1="&#xbb;" u2="t" k="20" />
<hkern u1="&#xbb;" u2="s" k="20" />
<hkern u1="&#xbb;" u2="f" k="20" />
<hkern u1="&#xbb;" u2="Z" k="31" />
<hkern u1="&#xbb;" u2="Y" k="205" />
<hkern u1="&#xbb;" u2="X" k="102" />
<hkern u1="&#xbb;" u2="W" k="102" />
<hkern u1="&#xbb;" u2="V" k="123" />
<hkern u1="&#xbb;" u2="T" k="184" />
<hkern u1="&#xbb;" u2="S" k="20" />
<hkern u1="&#xbb;" u2="A" k="41" />
<hkern u1="&#x2013;" u2="z" k="20" />
<hkern u1="&#x2013;" u2="y" k="31" />
<hkern u1="&#x2013;" u2="x" k="61" />
<hkern u1="&#x2013;" u2="w" k="20" />
<hkern u1="&#x2013;" u2="v" k="31" />
<hkern u1="&#x2013;" u2="Z" k="61" />
<hkern u1="&#x2013;" u2="Y" k="164" />
<hkern u1="&#x2013;" u2="X" k="102" />
<hkern u1="&#x2013;" u2="W" k="72" />
<hkern u1="&#x2013;" u2="V" k="82" />
<hkern u1="&#x2013;" u2="T" k="184" />
<hkern u1="&#x2013;" u2="A" k="82" />
<hkern u1="&#x2013;" u2="&#x37;" k="82" />
<hkern u1="&#x2013;" u2="&#x33;" k="20" />
<hkern u1="&#x2013;" u2="&#x31;" k="61" />
<hkern u1="&#x2014;" u2="z" k="20" />
<hkern u1="&#x2014;" u2="y" k="31" />
<hkern u1="&#x2014;" u2="x" k="61" />
<hkern u1="&#x2014;" u2="w" k="20" />
<hkern u1="&#x2014;" u2="v" k="31" />
<hkern u1="&#x2014;" u2="Z" k="61" />
<hkern u1="&#x2014;" u2="Y" k="164" />
<hkern u1="&#x2014;" u2="X" k="102" />
<hkern u1="&#x2014;" u2="W" k="72" />
<hkern u1="&#x2014;" u2="V" k="82" />
<hkern u1="&#x2014;" u2="T" k="184" />
<hkern u1="&#x2014;" u2="A" k="82" />
<hkern u1="&#x2014;" u2="&#x37;" k="82" />
<hkern u1="&#x2014;" u2="&#x33;" k="20" />
<hkern u1="&#x2014;" u2="&#x31;" k="61" />
<hkern u1="&#x2018;" u2="z" k="20" />
<hkern u1="&#x2018;" u2="t" k="-31" />
<hkern u1="&#x2018;" u2="s" k="20" />
<hkern u1="&#x2018;" u2="q" k="31" />
<hkern u1="&#x2018;" u2="o" k="31" />
<hkern u1="&#x2018;" u2="g" k="31" />
<hkern u1="&#x2018;" u2="e" k="31" />
<hkern u1="&#x2018;" u2="d" k="31" />
<hkern u1="&#x2018;" u2="c" k="31" />
<hkern u1="&#x2018;" u2="a" k="20" />
<hkern u1="&#x2018;" u2="J" k="164" />
<hkern u1="&#x2018;" u2="A" k="184" />
<hkern u1="&#x2019;" u2="s" k="41" />
<hkern u1="&#x2019;" u2="q" k="68" />
<hkern u1="&#x2019;" u2="o" k="78" />
<hkern u1="&#x2019;" u2="g" k="68" />
<hkern u1="&#x2019;" u2="e" k="78" />
<hkern u1="&#x2019;" u2="d" k="68" />
<hkern u1="&#x2019;" u2="c" k="78" />
<hkern u1="&#x2019;" u2="a" k="41" />
<hkern u1="&#x2019;" u2="J" k="205" />
<hkern u1="&#x2019;" u2="A" k="205" />
<hkern u1="&#x201a;" u2="y" k="92" />
<hkern u1="&#x201a;" u2="w" k="143" />
<hkern u1="&#x201a;" u2="v" k="174" />
<hkern u1="&#x201a;" u2="t" k="51" />
<hkern u1="&#x201a;" u2="q" k="20" />
<hkern u1="&#x201a;" u2="o" k="41" />
<hkern u1="&#x201a;" u2="j" k="-31" />
<hkern u1="&#x201a;" u2="g" k="20" />
<hkern u1="&#x201a;" u2="f" k="31" />
<hkern u1="&#x201a;" u2="e" k="41" />
<hkern u1="&#x201a;" u2="d" k="20" />
<hkern u1="&#x201a;" u2="c" k="41" />
<hkern u1="&#x201a;" u2="Y" k="266" />
<hkern u1="&#x201a;" u2="W" k="205" />
<hkern u1="&#x201a;" u2="V" k="246" />
<hkern u1="&#x201a;" u2="U" k="31" />
<hkern u1="&#x201a;" u2="T" k="205" />
<hkern u1="&#x201a;" u2="Q" k="82" />
<hkern u1="&#x201a;" u2="O" k="82" />
<hkern u1="&#x201a;" u2="G" k="82" />
<hkern u1="&#x201a;" u2="C" k="82" />
<hkern u1="&#x201c;" u2="z" k="20" />
<hkern u1="&#x201c;" u2="t" k="-31" />
<hkern u1="&#x201c;" u2="s" k="20" />
<hkern u1="&#x201c;" u2="q" k="31" />
<hkern u1="&#x201c;" u2="o" k="31" />
<hkern u1="&#x201c;" u2="g" k="31" />
<hkern u1="&#x201c;" u2="e" k="31" />
<hkern u1="&#x201c;" u2="d" k="31" />
<hkern u1="&#x201c;" u2="c" k="31" />
<hkern u1="&#x201c;" u2="a" k="20" />
<hkern u1="&#x201c;" u2="J" k="164" />
<hkern u1="&#x201c;" u2="A" k="184" />
<hkern u1="&#x201e;" u2="y" k="92" />
<hkern u1="&#x201e;" u2="w" k="143" />
<hkern u1="&#x201e;" u2="v" k="174" />
<hkern u1="&#x201e;" u2="t" k="51" />
<hkern u1="&#x201e;" u2="q" k="20" />
<hkern u1="&#x201e;" u2="o" k="41" />
<hkern u1="&#x201e;" u2="j" k="-31" />
<hkern u1="&#x201e;" u2="g" k="20" />
<hkern u1="&#x201e;" u2="f" k="31" />
<hkern u1="&#x201e;" u2="e" k="41" />
<hkern u1="&#x201e;" u2="d" k="20" />
<hkern u1="&#x201e;" u2="c" k="41" />
<hkern u1="&#x201e;" u2="Y" k="266" />
<hkern u1="&#x201e;" u2="W" k="205" />
<hkern u1="&#x201e;" u2="V" k="246" />
<hkern u1="&#x201e;" u2="U" k="31" />
<hkern u1="&#x201e;" u2="T" k="205" />
<hkern u1="&#x201e;" u2="Q" k="82" />
<hkern u1="&#x201e;" u2="O" k="82" />
<hkern u1="&#x201e;" u2="G" k="82" />
<hkern u1="&#x201e;" u2="C" k="82" />
<hkern u1="&#x2026;" u2="y" k="123" />
<hkern u1="&#x2026;" u2="w" k="143" />
<hkern u1="&#x2026;" u2="v" k="174" />
<hkern u1="&#x2026;" u2="t" k="51" />
<hkern u1="&#x2026;" u2="q" k="20" />
<hkern u1="&#x2026;" u2="o" k="41" />
<hkern u1="&#x2026;" u2="g" k="20" />
<hkern u1="&#x2026;" u2="f" k="31" />
<hkern u1="&#x2026;" u2="e" k="41" />
<hkern u1="&#x2026;" u2="d" k="20" />
<hkern u1="&#x2026;" u2="c" k="41" />
<hkern u1="&#x2026;" u2="Y" k="266" />
<hkern u1="&#x2026;" u2="W" k="205" />
<hkern u1="&#x2026;" u2="V" k="246" />
<hkern u1="&#x2026;" u2="U" k="31" />
<hkern u1="&#x2026;" u2="T" k="205" />
<hkern u1="&#x2026;" u2="Q" k="82" />
<hkern u1="&#x2026;" u2="O" k="82" />
<hkern u1="&#x2026;" u2="G" k="82" />
<hkern u1="&#x2026;" u2="C" k="82" />
<hkern u1="&#x2039;" u2="y" k="31" />
<hkern u1="&#x2039;" u2="x" k="31" />
<hkern u1="&#x2039;" u2="w" k="20" />
<hkern u1="&#x2039;" u2="v" k="31" />
<hkern u1="&#x2039;" u2="q" k="10" />
<hkern u1="&#x2039;" u2="o" k="20" />
<hkern u1="&#x2039;" u2="g" k="10" />
<hkern u1="&#x2039;" u2="e" k="20" />
<hkern u1="&#x2039;" u2="d" k="10" />
<hkern u1="&#x2039;" u2="c" k="20" />
<hkern u1="&#x2039;" u2="Y" k="154" />
<hkern u1="&#x2039;" u2="X" k="41" />
<hkern u1="&#x2039;" u2="W" k="72" />
<hkern u1="&#x2039;" u2="V" k="82" />
<hkern u1="&#x2039;" u2="T" k="143" />
<hkern u1="&#x203a;" u2="z" k="41" />
<hkern u1="&#x203a;" u2="y" k="61" />
<hkern u1="&#x203a;" u2="x" k="92" />
<hkern u1="&#x203a;" u2="w" k="41" />
<hkern u1="&#x203a;" u2="v" k="61" />
<hkern u1="&#x203a;" u2="t" k="20" />
<hkern u1="&#x203a;" u2="s" k="20" />
<hkern u1="&#x203a;" u2="f" k="20" />
</font>
</defs></svg> 