<?xml version="1.0" encoding="utf-8"?><!DOCTYPE svg PUBLIC "-//W3C//DTD SVG 1.1//EN" "http://www.w3.org/Graphics/SVG/1.1/DTD/svg11.dtd"><svg version="1.1" id="Layer_1" xmlns="http://www.w3.org/2000/svg" xmlns:xlink="http://www.w3.org/1999/xlink" x="0px" y="0px"
	 width="21px" height="22px" viewBox="0 0 21 22" enable-background="new 0 0 21 22" xml:space="preserve"><path fill="#443d3f" d="M19.391,17.36l-3.395-3.407c0.922-1.334,1.465-2.953,1.465-4.695C17.461,4.703,13.77,1,9.23,1
	S1,4.703,1,9.258s3.691,8.259,8.23,8.259c1.25,0,2.436-0.282,3.498-0.785l3.646,3.658c0.393,0.393,0.918,0.608,1.475,0.608
	c0.572,0,1.111-0.226,1.521-0.634C20.201,19.531,20.211,18.183,19.391,17.36z M4.291,9.258c0-2.731,2.216-4.955,4.939-4.955
	c2.723,0,4.938,2.224,4.938,4.955c0,2.734-2.217,4.957-4.938,4.957C6.507,14.215,4.291,11.992,4.291,9.258z"/></svg>
